<svg width="240" height="39" viewBox="0 0 240 39" fill="none" xmlns="http://www.w3.org/2000/svg">
<path fill-rule="evenodd" clip-rule="evenodd" d="M170.516 18.0377C172.146 14.528 175.224 8.85909 177.611 5.19603C178.65 3.60255 179.715 1.80502 181.295 0.683089C181.981 0.19545 182.797 -0.12944 183.642 0.0500089C184.11 0.149601 184.527 0.386437 184.896 0.679142C186.015 1.56697 184.683 3.26581 184.155 4.14545C183.306 5.5531 182.31 6.86147 181.442 8.25971C179.272 11.7625 177.155 15.3256 175.293 19.0616C174.277 21.1026 173.334 23.188 172.491 25.3207C172.168 26.1448 170.101 30.6067 170.825 31.0312C171.682 31.527 172.997 29.843 173.527 29.3742C173.981 28.974 174.979 28.1014 175.631 28.3492C177.109 28.9121 175.32 31.527 174.873 32.2494C173.613 34.2986 171.855 36.1775 169.409 36.2625C167.355 36.3351 165.639 34.7322 165.436 32.5038C165.31 31.1165 165.556 29.7003 165.863 28.3574C166.706 24.6724 168.662 21.3598 170.516 18.0377Z" fill="#EC1C24"/>
<path fill-rule="evenodd" clip-rule="evenodd" d="M163.744 27.8881C163.744 28.1468 163.685 28.4353 163.553 28.7289C162.949 30.077 161.082 30.7052 159.92 31.4649C157.974 32.7393 155.972 33.9335 153.871 34.9464C150.285 36.6802 147.039 38.6025 141.399 36.0535C137.115 34.1108 136.351 28.7978 138.399 23.2486C140.157 18.4754 143.533 14.3165 147.551 10.6993C151.589 7.06295 156.014 3.6346 159.234 3.29665C160.39 3.17672 161.64 3.34372 162.575 4.17902C164.402 5.80772 164.17 8.96978 163.182 11.0363C162.581 12.2958 161.896 13.1296 160.565 13.3251C159.426 13.4894 158.049 13.1096 158.288 11.5483C158.423 10.6738 159.396 8.99802 158.806 8.16272C157.997 7.01498 155.001 9.67847 154.335 10.1701C153.055 11.1119 151.875 12.2017 150.71 13.3106C148.687 15.2341 147.023 17.7306 145.623 20.2201C144.006 23.1028 142.515 26.4562 142.481 29.9036C142.474 30.9803 142.523 32.2128 143.083 33.1519C144.636 35.7559 148.547 33.8728 150.575 33.1331C152.559 32.4159 154.48 31.5226 156.339 30.5112C158.263 29.4615 160.033 28.2009 161.906 27.081C163.008 26.4264 163.744 26.9893 163.744 27.8881Z" fill="#EC1C24"/>
<path fill-rule="evenodd" clip-rule="evenodd" d="M187.188 5.78308C188.087 8.30629 189.122 10.7138 192.007 11.4844C192.007 9.16224 190.399 4.60194 187.188 5.78308Z" fill="#EC1C24"/>
<path fill-rule="evenodd" clip-rule="evenodd" d="M186.925 19.9837C186.862 19.3749 186.545 18.8348 185.857 18.2527C185.023 17.5455 183.836 17.2182 183.067 18.1625C182.479 18.8858 182.236 19.8516 181.888 20.6885C181.336 22.0126 180.922 23.3759 180.436 24.7259C179.4 27.6022 178.57 30.5524 178.035 33.5626C178.613 34.3208 179.082 35.1776 180.641 35.0726C182.074 32.1871 183.522 29.3084 184.801 26.3485C185.46 24.8221 186.075 23.2715 186.625 21.6993C186.857 21.0385 186.979 20.489 186.925 19.9837Z" fill="#EC1C24"/>
<path fill-rule="evenodd" clip-rule="evenodd" d="M202.078 26.2663C201.992 26.4062 201.915 26.5195 201.898 26.5438C201.537 27.0648 201.093 27.5218 200.628 27.9475C198.991 29.4602 197.611 31.2316 195.882 32.6487C194.637 33.6701 193.116 34.3357 191.524 33.7269C189.544 32.9696 187.803 30.2457 188.371 26.5571C189.097 21.8165 192.859 15.0536 195.285 13.0381C197.072 11.5533 199.294 11.6477 201.038 13.1337C202.145 14.0783 203.625 15.8822 203.65 17.4247C203.66 17.8355 203.576 18.0793 203.432 18.2072C203.02 18.5791 202.12 17.9539 201.612 17.5188C200.979 16.9826 200.286 16.3264 199.378 16.5217C198.79 16.6498 198.112 17.4189 197.675 17.8152C197.004 18.4215 196.397 19.0923 195.851 19.8128C194.719 21.3018 193.857 22.9815 193.198 24.7286C192.877 25.5913 190.92 29.5103 192.92 29.6512C193.559 29.6946 194.124 29.3442 194.684 29.149C195.342 28.9185 195.963 28.6559 196.624 28.3835C197.578 27.9903 198.637 27.5039 199.575 26.9531C200.361 26.487 201.319 25.8481 202.352 25.5934C202.463 25.567 202.25 25.9915 202.078 26.2663Z" fill="#EC1C24"/>
<path fill-rule="evenodd" clip-rule="evenodd" d="M223.938 15.1609C223.612 14.7756 222.946 14.1856 222.446 14.0563C221.457 13.8003 219.968 14.5369 219.16 15.01C218.199 15.5747 217.378 16.3262 216.566 17.0635C214.618 18.8337 211.778 20.9042 209.833 22.8104C210.398 21.0605 211.11 18.8109 211.948 17.2684C212.484 16.2846 212.734 15.3179 213.345 14.3921C214.052 13.3291 214.698 12.2096 215.397 11.1344C216.367 9.64444 218.111 7.67202 218.253 5.81559C218.357 4.43769 216.515 2.59857 214.82 3.12811C211.894 7.1695 210.078 12.1002 207.818 16.363C206.424 20.1448 204.441 24.0942 203.984 28.1228C203.908 28.8017 203.819 29.4791 203.751 30.1608C203.63 31.3535 203.518 32.5981 203.741 33.7847C203.936 34.8237 204.395 35.6077 205.287 36.1773C206.772 37.1286 206.915 34.6564 207.012 33.7155C207.16 32.3102 207.478 30.9682 207.882 29.6516L207.243 32.2966C208.488 33.175 208.968 34.422 210.408 34.8052C213.158 35.5285 215.677 33.87 217.762 32.4028C218.49 31.8924 220.965 30.6761 221.709 29.416C222.046 28.8479 222.03 28.2682 221.33 27.7442C220.527 27.1366 219.223 28.4422 218.487 28.8801C217.18 29.6583 215.871 30.4429 214.484 31.0839C214.031 31.2928 210.024 32.4147 209.997 32.5173C210.365 30.9803 210.915 29.4852 211.657 28.0788C213.009 25.5188 214.602 23.1274 216.845 21.2376C217.935 20.316 219.085 19.4555 220.242 18.6078C220.821 18.1836 221.392 17.7512 221.981 17.3401C222.499 16.9794 223.712 17.0386 224.138 16.6196C224.548 16.209 224.286 15.5784 223.938 15.1609Z" fill="#EC1C24"/>
<path fill-rule="evenodd" clip-rule="evenodd" d="M225.908 20.8245C226.001 20.039 226.208 19.2565 226.405 18.5624C226.617 17.8255 226.883 17.1059 227.214 16.4163C227.817 15.1608 228.643 14.017 229.676 13.0794C230.677 12.17 231.853 11.4695 233.102 10.9658C234.193 10.5197 236.279 9.62947 237.456 10.0552C238.052 10.272 240.027 11.8226 239.261 12.6579C238.469 13.523 237.866 13.2412 236.952 13.6399C234.272 14.808 228.345 18.8053 229.389 23.069C229.43 23.2375 229.675 23.6432 229.796 23.7695C231.669 25.6812 239.013 27.6849 235.597 31.78C234.158 33.5071 231.755 34.387 229.518 35.4528C228.562 35.9067 227.413 36.4712 226.269 37.0493C225.078 37.6514 222.825 39.3666 221.548 38.0179C220.525 36.9345 222.518 35.982 223.251 35.5174C224.306 34.8464 225.369 34.1985 226.406 33.5037C228.468 32.1158 230.422 30.5166 231.757 28.3908C231.927 28.1227 226.945 24.5131 226.485 23.8642C225.865 22.9937 225.782 21.9064 225.908 20.8245Z" fill="#EC1C24"/>
<path d="M25.1508 29.0417C23.1519 30.6394 20.7307 31.4796 18.1793 31.4796C11.9851 31.4796 7.16611 26.5464 7.16611 20.2441C7.16611 13.9419 11.9851 9.0084 18.1793 9.0084C20.731 9.0084 23.1519 9.8519 25.1508 11.4499L25.2464 11.5252L30.0247 6.74813L29.9157 6.64854C26.6465 3.82473 22.486 2.26465 18.179 2.26465C8.15474 2.26434 0 10.3313 0 20.2441C0 30.1566 8.15474 38.2239 18.179 38.2239C22.486 38.2239 26.6462 36.6687 29.9157 33.8425L30.0247 33.7374L25.2464 28.9685L25.1508 29.0417ZM36.5061 37.2241H43.3838V3.26148H36.5061V37.2241ZM70.4757 24.9593C70.2185 24.5175 58.4818 3.19408 58.4818 3.19408H51.7741V37.1594H58.6272C58.6272 37.1594 58.6272 17.8891 58.6272 16.8704C59.1485 17.7571 70.4757 37.4342 70.4757 37.4342C70.4757 37.4342 81.7491 17.7598 82.2528 16.8735C82.2528 17.8891 82.2528 37.1594 82.2528 37.1594H89.1128V3.19408H82.4092C82.4092 3.19408 70.7143 24.5172 70.4757 24.9593ZM117.385 19.8184C118.891 18.9886 121.361 16.6606 121.361 12.8694C121.361 6.94732 117.323 3.26118 110.819 3.26118H97.1555V37.2241H111.393C117.834 37.2241 121.836 33.4602 121.836 27.3896C121.835 22.8278 119.159 20.7129 117.385 19.8184ZM104.013 9.42074C104.276 9.42074 110.3 9.42074 110.3 9.42074C112.938 9.42074 114.509 10.8108 114.509 13.1576C114.509 15.4938 112.938 16.8868 110.3 16.8868C110.3 16.8868 104.275 16.8868 104.013 16.8868V9.42074ZM110.727 31.0727C110.727 31.0727 104.276 31.0727 104.013 31.0727V23.084C104.276 23.084 110.727 23.084 110.727 23.084C113.861 23.084 114.982 25.1345 114.982 27.058C114.982 28.9983 113.861 31.0727 110.727 31.0727Z" fill="#820024"/>
</svg>
