<svg width="86" height="73" viewBox="0 0 86 73" fill="none" xmlns="http://www.w3.org/2000/svg">
<path fill-rule="evenodd" clip-rule="evenodd" d="M35.6853 72.924H48.7417C69.1223 72.924 85.3631 56.7549 86 36.7813V36.4642C85.6816 16.1736 69.1223 -0.312544 48.7417 0.00449741H34.0931C14.6678 0.63858 -0.617693 17.1247 0.0192022 36.7813C0.0192022 56.4378 15.9416 72.6069 35.6853 72.924ZM6.38797 36.4641C6.38797 19.978 20.0812 6.34521 36.6405 6.34521C53.1997 6.34521 66.893 19.978 66.893 36.4641C66.893 52.9503 53.1997 66.583 36.6405 66.583C20.0812 66.583 6.38797 52.9503 6.38797 36.4641ZM41.4174 56.7548V16.4906C52.563 19.344 59.5689 30.4404 56.7028 41.5368C54.7921 49.1458 49.0601 54.8526 41.4174 56.7548ZM16.8966 31.3915C14.0306 42.488 20.718 53.9015 31.8636 56.7548V16.4906C24.5393 18.3928 18.8073 24.0996 16.8966 31.3915Z" fill="#145095"/>
</svg>
