<svg width="189" height="76" viewBox="0 0 189 76" fill="none" xmlns="http://www.w3.org/2000/svg">
<path fill-rule="evenodd" clip-rule="evenodd" d="M14.1031 6.21563C9.64429 6.22293 6.03682 9.51085 6.02815 13.574V62.4272C6.02923 62.935 6.08655 63.4306 6.19473 63.9093C6.95199 67.26 10.2016 69.7787 14.1031 69.7856H98.119V6.21563H14.1031ZM14.1029 0.721436H174.897C182.686 0.722653 188.997 6.4727 189 13.5737V62.4269C188.997 69.5254 182.686 75.2761 174.897 75.2785H14.1029C6.3129 75.2761 0.00266874 69.5254 0 62.4269V13.5737C0.00266874 6.4727 6.3129 0.722653 14.1029 0.721436Z" fill="#0F3365"/>
<path fill-rule="evenodd" clip-rule="evenodd" d="M111.87 54.4357H104.816V28.3253H111.322V31.6832H111.401C112.811 29.0756 115.791 27.8969 119.005 27.8969C124.649 27.8969 127.743 32.7907 127.743 37.2902C127.743 42.7914 124.49 47.3633 118.416 47.3633C115.947 47.3633 113.282 46.543 111.949 44.3285H111.87V54.4357ZM116.184 42.434C118.847 42.434 120.454 40.3991 120.454 37.4337C120.454 34.9679 118.926 32.8258 116.184 32.8258C113.596 32.8258 111.87 34.8979 111.87 37.6832C111.87 40.3991 113.831 42.434 116.184 42.434ZM154.773 54.4356C156.224 54.7222 157.673 54.8652 159.163 54.8652C165.264 54.8652 166.969 50.8269 168.82 46.4442C168.931 46.1807 169.043 45.916 169.156 45.6508L176.643 28.3252H169.588L165.394 40.4691H165.316L160.926 28.3252H153.325L161.591 47.3632C161.084 49.0062 159.751 49.9355 158.029 49.9355C157.047 49.9355 156.184 49.8302 155.245 49.5417L154.773 54.4356ZM152.144 47.5396C151.831 46.0755 151.751 44.612 151.751 43.1466V36.2172C151.751 30.5378 147.244 28.5028 142.032 28.5028C139.013 28.5028 136.387 28.8941 133.879 29.8246L133.996 34.1817C135.957 33.1825 138.23 32.7887 140.501 32.7887C143.05 32.7887 145.128 33.4673 145.167 36.0042C144.266 35.86 143.013 35.7517 141.876 35.7517C138.113 35.7517 131.333 36.4326 131.333 42.1115C131.333 46.1491 134.938 47.9705 138.975 47.9705C141.876 47.9705 143.835 46.9329 145.441 44.612H145.518C145.518 45.1783 145.559 45.7451 145.601 46.3184L145.601 46.3187C145.631 46.7217 145.66 47.128 145.676 47.5396H152.144ZM137.916 41.6479C137.916 39.8619 139.797 39.1834 142.188 39.1834C142.938 39.1834 143.667 39.2191 144.349 39.2524L144.35 39.2525C144.631 39.2662 144.904 39.2796 145.167 39.2899C145.167 41.4678 143.483 43.6853 140.815 43.6853C139.17 43.6853 137.916 42.932 137.916 41.6479Z" fill="#FFFFFE"/>
<path fill-rule="evenodd" clip-rule="evenodd" d="M43.5063 46.9341H50.5605V28.3257H43.5063V46.9341ZM43.5063 25.2888H50.5604V20.5739H43.5063V25.2888ZM67.8132 27.8969C68.6352 27.8969 69.4972 28.004 70.203 28.1092L69.8494 33.4674C69.0668 33.2538 68.2822 33.2538 67.4602 33.2538C64.1684 33.2538 62.3256 35.4329 62.3256 39.0775V46.9336H55.2715V28.3253H61.6991V31.7531H61.7765C62.9921 29.3969 64.7562 27.8969 67.8132 27.8969ZM94.2241 37.6486C94.2241 43.7924 89.0894 47.3633 82.3502 47.3633C75.6096 47.3633 70.475 43.7924 70.475 37.6486C70.475 31.4677 75.6096 27.8969 82.3502 27.8969C89.0894 27.8969 94.2241 31.4677 94.2241 37.6486ZM77.765 37.6486C77.765 40.3992 79.0974 42.8625 82.3506 42.8625C85.6031 42.8625 86.9361 40.3992 86.9361 37.6486C86.9361 34.8621 85.6031 32.3975 82.3506 32.3975C79.0974 32.3975 77.765 34.8621 77.765 37.6486ZM32.2493 28.3253H38.6389V44.7569C38.6389 52.3995 34.5631 54.8653 26.3327 54.8653C22.9628 54.8653 20.1799 54.2209 18.5333 53.6872L18.8869 48.6144C21.0419 49.579 22.8447 50.1498 25.7843 50.1498C29.8608 50.1498 32.0545 48.4002 32.0545 44.7569V43.7547H31.9751C30.2911 45.9363 27.94 46.9337 25.1184 46.9337C19.5134 46.9337 16.0254 43.0792 16.0254 37.5762C16.0254 32.0392 18.8869 27.8969 25.2352 27.8969C28.2522 27.8969 30.6828 29.3969 32.1726 31.6819H32.2493V28.3253ZM27.3131 32.8259C24.6871 32.8259 23.3154 34.9332 23.3154 37.4684C23.3154 40.3607 25.1968 42.0056 27.3131 42.0056C29.8204 42.0056 31.82 40.0772 31.82 37.2183C31.82 35.1456 30.4869 32.8259 27.3131 32.8259Z" fill="#D8232A"/>
</svg>
