<svg width="112" height="86" viewBox="0 0 112 86" fill="none" xmlns="http://www.w3.org/2000/svg">
<path d="M83.8697 44.6679C86.887 44.7355 89.9214 44.5308 92.9266 44.7743C95.97 45.3587 96.7035 50.1016 93.9996 51.6549C92.1548 52.6782 89.9632 52.036 87.9632 52.2165H83.8697V44.6679ZM94.6712 36.124C95.3415 38.5597 93.0606 40.7467 90.7817 40.4113H83.8697C83.9183 38.1143 83.775 35.6211 83.94 33.4451C86.7089 33.5253 89.5034 33.2813 92.2563 33.5726C93.4391 33.8786 94.429 34.8796 94.6712 36.124ZM111.306 0.002611C111.434 4.65427 111.324 9.55179 111.361 14.2978C111.353 33.5934 111.379 52.8884 111.346 72.1851C111.225 79.4165 104.999 85.7001 98.0232 85.8445C91.0402 85.8737 84.0562 85.849 77.0721 85.857V56.6861C84.6815 56.6457 92.2948 56.7682 99.901 56.6249C103.43 56.3969 107.295 54.0002 107.459 50.003C107.874 45.9884 104.197 43.2117 100.707 42.7731C99.3647 42.7372 99.404 42.3704 100.707 42.2104C104.036 41.4696 106.651 37.9224 105.671 34.3698C104.836 30.6332 100.824 29.187 97.4874 29.1942C90.6833 29.1466 83.878 29.1876 77.0737 29.1738C77.1176 23.7279 76.982 18.2762 77.1468 12.8343C77.6859 5.73339 84.0683 -0.122579 90.9464 0.00447054C97.7337 0.00340736 104.52 0.00340809 111.306 0.0031423V0.002611Z" fill="url(#paint0_linear)"/>
<path d="M0.180983 13.5699C0.354752 6.34987 6.60706 0.117802 13.5743 0.012282C20.5315 -0.00977886 27.4897 0.00909371 34.4469 0.00271466C34.4278 24.1594 34.4846 48.3187 34.4183 72.4741C34.1503 79.6064 27.9661 85.7197 21.0748 85.8459C14.1044 85.872 7.13327 85.8496 0.162651 85.8568V55.7025C6.93342 57.3491 14.0337 58.05 20.941 56.9578C25.0699 56.2739 29.5874 54.1867 30.9852 49.7771C32.0139 46.0053 31.4348 42.0356 31.5879 38.1643V29.1739H19.634C19.5803 35.1199 19.744 41.0764 19.5475 47.0153C19.2253 50.6657 15.7135 52.985 12.369 52.8612C8.22132 52.9063 0.00204854 49.7668 0.00204854 49.7668C-0.0186074 38.6263 0.122372 24.6745 0.180983 13.571V13.5699Z" fill="url(#paint1_linear)"/>
<path d="M38.905 32.8003C38.2758 32.9377 38.7785 30.594 38.6176 29.7049C38.6605 24.0833 38.528 18.4557 38.6907 12.8381C39.2283 5.70714 45.6597 -0.163445 52.5657 0.00347381H72.9035C72.8844 24.1602 72.9409 48.3195 72.8748 72.4748C72.6065 79.6072 66.4219 85.7202 59.5304 85.8467C52.5598 85.8738 45.5885 85.8509 38.6174 85.8578V52.8197C43.3783 56.8409 49.849 57.4668 55.7803 57.4777C60.2518 57.4761 64.6972 56.7664 69.0395 55.7048V49.6522C64.1459 52.1629 58.3933 53.7576 52.9685 52.3152C49.1844 51.3456 46.4374 47.5809 46.4986 43.5607C46.0602 39.38 48.4408 34.9663 52.4317 33.7234C57.3868 32.1265 62.7873 33.3479 67.432 35.424C68.4271 35.9603 69.4372 36.6256 69.0393 34.9134V30.1559C61.2711 28.2534 53.0042 27.5533 45.1999 29.623C42.9409 30.279 40.74 31.2739 38.905 32.8008V32.8003Z" fill="url(#paint2_linear)"/>
<defs>
<linearGradient id="paint0_linear" x1="76.8381" y1="41.0941" x2="111.145" y2="41.0941" gradientUnits="userSpaceOnUse">
<stop stop-color="#007B40"/>
<stop offset="1" stop-color="#55B330"/>
</linearGradient>
<linearGradient id="paint1_linear" x1="-0.566791" y1="43.7519" x2="33.8848" y2="43.7519" gradientUnits="userSpaceOnUse">
<stop stop-color="#1D2970"/>
<stop offset="1" stop-color="#006DBA"/>
</linearGradient>
<linearGradient id="paint2_linear" x1="38.5671" y1="41.9267" x2="72.8971" y2="41.9267" gradientUnits="userSpaceOnUse">
<stop stop-color="#6E2B2F"/>
<stop offset="1" stop-color="#E30138"/>
</linearGradient>
</defs>
</svg>
