<svg width="212" height="73" viewBox="0 0 212 73" fill="none" xmlns="http://www.w3.org/2000/svg">
<path d="M33.5586 57.8015H39.6216V59.0146H35.0115V62.7359H39.2708V63.9324H35.0115V69.0002H33.5586V57.8015Z" fill="#94CE33"/>
<path d="M48.4593 66.8073C48.4593 67.6382 48.476 68.3689 48.5261 69.0003H47.2231L47.1396 67.6876H47.1062C46.722 68.3356 45.87 69.1827 44.4338 69.1827C43.1647 69.1827 41.6445 68.4847 41.6445 65.6602V60.958H43.1146V65.4105C43.1146 66.9393 43.5823 67.9696 44.9183 67.9696C45.9039 67.9696 46.5888 67.2878 46.8561 66.6402C46.9396 66.4242 46.9897 66.1583 46.9897 65.8924V60.958H48.4598V66.8073H48.4593Z" fill="#94CE33"/>
<path d="M51.5317 63.1353C51.5317 62.3045 51.515 61.6231 51.4648 60.9585H52.7678L52.8514 62.2878H52.8848C53.2857 61.5234 54.2207 60.7761 55.5571 60.7761C56.6764 60.7761 58.4132 61.4404 58.4132 64.1988V69.0003H56.9432V64.3645C56.9432 63.0684 56.4587 61.9887 55.0727 61.9887C54.1038 61.9887 53.3521 62.6705 53.1015 63.4843C53.0347 63.6671 53.0012 63.9163 53.0012 64.1656V69.0008H51.5312V63.1353H51.5317Z" fill="#94CE33"/>
<path d="M67.1169 57.8015V62.4867H72.5619V57.8015H74.0319V69.0002H72.5619V63.7496H67.1169V69.0002H65.6641V57.8015H67.1169Z" fill="#94CE33"/>
<path d="M77.9618 65.2453C77.9952 67.2223 79.2648 68.0365 80.7344 68.0365C81.7868 68.0365 82.4216 67.8537 82.9724 67.6215L83.223 68.6684C82.7051 68.9011 81.8202 69.1669 80.5339 69.1669C78.0453 69.1669 76.5586 67.5385 76.5586 65.1128C76.5586 62.6867 77.9952 60.7761 80.3502 60.7761C82.9896 60.7761 83.6907 63.0855 83.6907 64.5644C83.6907 64.8631 83.6573 65.0957 83.6406 65.2457H77.9618V65.2453ZM82.2708 64.1984C82.2875 63.2678 81.8866 61.8226 80.2328 61.8226C78.746 61.8226 78.095 63.1847 77.9781 64.1984H82.2708Z" fill="#94CE33"/>
<path d="M90.623 69.0003L90.5061 67.9871H90.456C90.0049 68.6181 89.1363 69.1831 87.9841 69.1831C86.347 69.1831 85.5117 68.037 85.5117 66.8738C85.5117 64.9296 87.2491 63.866 90.3724 63.8831V63.7174C90.3724 63.0527 90.1887 61.8563 88.5353 61.8563C87.7836 61.8563 86.9985 62.0894 86.431 62.4545L86.0969 61.4912C86.7651 61.0586 87.734 60.7766 88.753 60.7766C91.2249 60.7766 91.8263 62.4545 91.8263 64.0664V67.0737C91.8263 67.7716 91.8597 68.4529 91.9599 69.0013H90.623V69.0003ZM90.4063 64.8963C88.8026 64.8631 86.9822 65.1456 86.9822 66.7071C86.9822 67.6543 87.617 68.103 88.3688 68.103C89.4212 68.103 90.0894 67.4383 90.3228 66.757C90.3729 66.6074 90.4063 66.4413 90.4063 66.2917V64.8963Z" fill="#94CE33"/>
<path d="M94.832 57.2034H96.3021V69.0003H94.832V57.2034Z" fill="#94CE33"/>
<path d="M101.178 58.6492V60.9585H103.283V62.0719H101.178V66.4085C101.178 67.4051 101.462 67.9706 102.28 67.9706C102.665 67.9706 102.949 67.9207 103.132 67.8709L103.199 68.9671C102.915 69.0835 102.464 69.167 101.896 69.167C101.211 69.167 100.66 68.9505 100.309 68.5522C99.8915 68.1197 99.7412 67.4056 99.7412 66.4589V62.0723H98.4883V60.959H99.7412V59.0314L101.178 58.6492Z" fill="#94CE33"/>
<path d="M105.574 57.2034H107.044V62.2209H107.078C107.312 61.8059 107.679 61.4403 108.13 61.1911C108.564 60.9418 109.082 60.7761 109.634 60.7761C110.719 60.7761 112.456 61.4403 112.456 64.2154V69.0003H110.986V64.3811C110.986 63.085 110.502 61.9882 109.116 61.9882C108.164 61.9882 107.412 62.6529 107.145 63.4506C107.061 63.65 107.044 63.8655 107.044 64.1485V69.0003H105.574V57.2034Z" fill="#94CE33"/>
<path d="M115.799 60.9585L117.569 65.7106C117.753 66.2419 117.953 66.8738 118.087 67.3552H118.121C118.271 66.8733 118.438 66.2585 118.638 65.6769L120.242 60.958H121.795L119.591 66.6905C118.538 69.4485 117.82 70.8605 116.818 71.7247C116.099 72.3561 115.381 72.6049 115.014 72.6718L114.646 71.4422C115.014 71.3258 115.498 71.0932 115.932 70.7276C116.333 70.4119 116.834 69.8474 117.168 69.0996C117.235 68.95 117.285 68.8337 117.285 68.7506C117.285 68.6675 117.252 68.5512 117.185 68.3684L114.195 60.958H115.799V60.9585Z" fill="#94CE33"/>
<path d="M127.993 57.9511C128.627 57.8182 129.629 57.718 130.648 57.718C132.101 57.718 133.037 57.9673 133.738 58.5327C134.323 58.9648 134.674 59.629 134.674 60.5097C134.674 61.5899 133.955 62.537 132.769 62.9686V63.0019C133.839 63.2677 135.091 64.148 135.091 65.8097C135.091 66.7735 134.707 67.5047 134.139 68.0526C133.354 68.7672 132.084 69.0995 130.247 69.0995C129.245 69.0995 128.476 69.033 127.992 68.9666V57.9511H127.993ZM129.446 62.537H130.765C132.302 62.537 133.204 61.739 133.204 60.6597C133.204 59.347 132.201 58.8318 130.732 58.8318C130.064 58.8318 129.679 58.8817 129.446 58.9315V62.537ZM129.446 67.9035C129.73 67.9534 130.147 67.9704 130.665 67.9704C132.168 67.9704 133.555 67.4221 133.555 65.7936C133.555 64.2648 132.235 63.6333 130.648 63.6333H129.446V67.9035Z" fill="#94CE33"/>
<path d="M138.517 65.2453C138.55 67.2223 139.82 68.0365 141.289 68.0365C142.342 68.0365 142.976 67.8537 143.527 67.6215L143.778 68.6684C143.26 68.9011 142.375 69.1669 141.089 69.1669C138.6 69.1669 137.113 67.5385 137.113 65.1128C137.113 62.6867 138.55 60.7761 140.905 60.7761C143.544 60.7761 144.245 63.0855 144.245 64.5644C144.245 64.8631 144.212 65.0957 144.195 65.2457H138.517V65.2453ZM142.826 64.1984C142.843 63.2678 142.442 61.8226 140.788 61.8226C139.301 61.8226 138.65 63.1847 138.533 64.1984H142.826Z" fill="#94CE33"/>
<path d="M151.178 69.0003L151.061 67.9871H151.011C150.56 68.6181 149.691 69.1831 148.539 69.1831C146.902 69.1831 146.066 68.037 146.066 66.8738C146.066 64.9296 147.804 63.866 150.927 63.8831V63.7174C150.927 63.0527 150.743 61.8563 149.09 61.8563C148.338 61.8563 147.553 62.0894 146.986 62.4545L146.652 61.4912C147.32 61.0586 148.289 60.7766 149.308 60.7766C151.78 60.7766 152.381 62.4545 152.381 64.0664V67.0737C152.381 67.7716 152.414 68.4529 152.515 69.0013H151.178V69.0003ZM150.961 64.8963C149.357 64.8631 147.536 65.1456 147.536 66.7071C147.536 67.6543 148.171 68.103 148.923 68.103C149.975 68.103 150.644 67.4383 150.877 66.757C150.927 66.6074 150.961 66.4413 150.961 66.2917V64.8963Z" fill="#94CE33"/>
<path d="M162.151 66.8073C162.151 67.6382 162.167 68.3689 162.218 69.0003H160.915L160.831 67.6876H160.798C160.413 68.3356 159.561 69.1827 158.125 69.1827C156.856 69.1827 155.336 68.4847 155.336 65.6602V60.958H156.806V65.4105C156.806 66.9393 157.274 67.9696 158.61 67.9696C159.595 67.9696 160.28 67.2878 160.547 66.6402C160.631 66.4242 160.681 66.1583 160.681 65.8924V60.958H162.151V66.8073H162.151Z" fill="#94CE33"/>
<path d="M166.999 58.6492V60.9585H169.103V62.0719H166.999V66.4085C166.999 67.4051 167.283 67.9706 168.101 67.9706C168.485 67.9706 168.769 67.9207 168.953 67.8709L169.019 68.9671C168.735 69.0835 168.284 69.167 167.716 69.167C167.032 69.167 166.48 68.9505 166.129 68.5522C165.712 68.1197 165.561 67.4056 165.561 66.4589V62.0723H164.309V60.959H165.561V59.0314L166.999 58.6492Z" fill="#94CE33"/>
<path d="M172.075 60.9585L173.846 65.7106C174.03 66.2419 174.23 66.8738 174.364 67.3552H174.397C174.548 66.8733 174.715 66.2585 174.915 65.6769L176.519 60.958H178.073L175.868 66.6905C174.816 69.4485 174.097 70.8605 173.095 71.7247C172.377 72.3561 171.659 72.6049 171.291 72.6718L170.924 71.4422C171.291 71.3258 171.776 71.0932 172.21 70.7276C172.61 70.4119 173.112 69.8474 173.446 69.0996C173.513 68.95 173.563 68.8337 173.563 68.7506C173.563 68.6675 173.529 68.5512 173.462 68.3684L170.473 60.958H172.075V60.9585Z" fill="#94CE33"/>
<path d="M105.796 30.4926C104.914 30.4926 104.199 29.7813 104.199 28.9043V16.3005C104.199 15.4235 104.914 14.7122 105.796 14.7122C106.678 14.7122 107.393 15.4235 107.393 16.3005V28.9043C107.393 29.7813 106.678 30.4926 105.796 30.4926Z" fill="#FF7529"/>
<path d="M97.8633 22.6025C97.8633 21.7255 98.5784 21.0142 99.46 21.0142H112.13C113.012 21.0142 113.727 21.7255 113.727 22.6025C113.727 23.4795 113.012 24.1908 112.13 24.1908H99.4595C98.5779 24.1908 97.8633 23.4795 97.8633 22.6025Z" fill="#FF7529"/>
<path d="M59.2772 0H56.6754C56.6754 0 32.8516 0.327269 32.8516 34.0226V43.9861C32.8516 45.0717 33.736 45.9515 34.8274 45.9515C35.9188 45.9515 36.8032 45.0717 36.8032 43.9861V34.1348H58.0303V43.8176C58.0303 44.996 58.9909 45.9515 60.1755 45.9515C61.3602 45.9515 62.3208 44.996 62.3208 43.8176V10.2113V3.02805C62.3212 1.3557 60.9584 0 59.2772 0ZM58.1436 28.9682H51.4819H37.4812C37.4812 28.9682 38.6102 4.79779 58.1436 4.79779V28.9682Z" fill="#069BC5"/>
<path d="M64.2656 5.13429V43.7105C64.2656 44.948 65.274 45.9515 66.5185 45.9515C67.7626 45.9515 68.7714 44.9485 68.7714 43.7105V9.29463L92.2546 44.9753C92.6555 45.5846 93.3381 45.9515 94.0698 45.9515C95.268 45.9515 96.2397 44.985 96.2397 43.7931V2.09609C96.2397 0.938417 95.2963 0 94.1325 0C92.9687 0 92.0253 0.938417 92.0253 2.09609V35.7508L68.0999 0.718238C67.7923 0.269108 67.2814 0 66.7352 0C65.3714 0 64.2656 1.09997 64.2656 2.4566V5.13429Z" fill="#069BC5"/>
<path d="M15.7074 0.2832C15.0713 0.0934858 14.4128 0.000244141 13.7488 0.000244141H1.29233C0.578646 0.000244141 0 0.57585 0 1.28578V44.6658C0 45.3757 0.578646 45.9513 1.29233 45.9513H12.9386C13.6824 45.9513 14.4235 45.8525 15.1371 45.6453C19.1533 44.4788 31.7128 39.5098 31.7128 22.976C31.7133 6.32868 19.4791 1.40533 15.7074 0.2832ZM13.7864 40.7741H4.13962V5.25455C4.13962 5.25455 13.5998 5.25455 14.501 5.25455C16.5487 5.25455 27.4418 10.0163 27.4418 21.8885C27.4418 39.5453 13.7864 40.7741 13.7864 40.7741Z" fill="#069BC5"/>
<path d="M175.039 0H172.437C172.437 0 148.613 0.327269 148.613 34.0226V43.9861C148.613 45.0717 149.498 45.9515 150.589 45.9515C151.681 45.9515 152.565 45.0717 152.565 43.9861V34.1348H173.792V43.8176C173.792 44.996 174.753 45.9515 175.937 45.9515C177.122 45.9515 178.082 44.996 178.082 43.8176V10.2113V3.02805C178.083 1.3557 176.72 0 175.039 0ZM173.905 28.9682H167.244H153.243C153.243 28.9682 154.372 4.79779 173.905 4.79779V28.9682Z" fill="#069BC5"/>
<path d="M180.023 5.13429V43.7105C180.023 44.948 181.032 45.9515 182.276 45.9515C183.52 45.9515 184.529 44.9485 184.529 43.7105V9.29463L208.012 44.9753C208.413 45.5846 209.096 45.9515 209.828 45.9515C211.026 45.9515 211.997 44.985 211.997 43.7931V2.09609C211.997 0.938417 211.054 0 209.89 0C208.727 0 207.783 0.938417 207.783 2.09609V35.7508L183.858 0.718238C183.55 0.269108 183.039 0 182.493 0C181.129 0 180.023 1.09997 180.023 2.4566V5.13429Z" fill="#069BC5"/>
<path d="M131.469 0.282956C130.833 0.0932417 130.175 0 129.51 0H117.054C116.34 0 115.762 0.575606 115.762 1.28554V44.6655C115.762 45.3755 116.34 45.9511 117.054 45.9511H128.7C129.444 45.9511 130.185 45.8523 130.899 45.645C134.915 44.4786 147.475 39.5095 147.475 22.9758C147.475 6.32843 135.241 1.40509 131.469 0.282956ZM129.548 40.7738H119.901V5.25431C119.901 5.25431 129.362 5.25431 130.263 5.25431C132.31 5.25431 143.204 10.0161 143.204 21.8883C143.204 39.5451 129.548 40.7738 129.548 40.7738Z" fill="#069BC5"/>
</svg>
