<svg width="88" height="88" viewBox="0 0 88 88" fill="none" xmlns="http://www.w3.org/2000/svg">
<ellipse cx="44" cy="44" rx="44" ry="44" fill="#6481E7"/>
<path fill-rule="evenodd" clip-rule="evenodd" d="M24.7773 45.7903L44.5141 57.4579V13.041L24.7773 45.7903Z" fill="white"/>
<path fill-rule="evenodd" clip-rule="evenodd" d="M44.5156 13.041V57.4579L64.2524 45.7903L44.5156 13.041Z" fill="#C1CCF5"/>
<path fill-rule="evenodd" clip-rule="evenodd" d="M44.5154 36.8195L24.7773 45.7896L44.5141 57.4572L64.2523 45.7909L44.5154 36.8195Z" fill="#8299EC"/>
<path fill-rule="evenodd" clip-rule="evenodd" d="M44.5154 36.8195L24.7773 45.7896L44.5141 57.4572L44.5154 36.8195Z" fill="#C1CCF5"/>
<path fill-rule="evenodd" clip-rule="evenodd" d="M24.7773 49.5337L44.5141 77.3474V61.1948L24.7773 49.5337Z" fill="white"/>
<path fill-rule="evenodd" clip-rule="evenodd" d="M44.5156 61.1948V77.3487L64.2654 49.5337L44.5156 61.1948Z" fill="#C1CCF5"/>
</svg>
