<svg width="208" height="49" viewBox="0 0 208 49" fill="none" xmlns="http://www.w3.org/2000/svg">
<path fill-rule="evenodd" clip-rule="evenodd" d="M10.4292 48.0925H0V0H10.4292V48.0925ZM36.4669 0H26.2639C26.2639 8.85025 22.419 16.9734 15.7154 22.2878L11.6731 25.4915L27.3357 48.0944H40.2133L25.8017 27.2963C32.633 20.0971 36.4669 10.4117 36.4669 0ZM53.1017 48.0795H43.2525V0.00934599H53.1017V48.0795ZM82.8597 14.8275V16.9547C80.2021 15.036 76.9944 13.9084 73.5347 13.9084C64.3783 13.9084 56.9556 21.7639 56.9556 31.4543C56.9556 41.1446 64.3783 49.0001 73.5347 49.0001C76.9944 49.0001 80.2021 47.8726 82.8597 45.9544V48.0796H92.2671V14.8275H82.8597ZM82.8317 31.4546C82.8317 36.1796 79.0152 40.0102 74.3074 40.0102C69.6 40.0102 65.7835 36.1796 65.7835 31.4546C65.7835 26.7297 69.6 22.9001 74.3074 22.9001C79.0152 22.9001 82.8317 26.7297 82.8317 31.4546ZM182.104 16.9547V14.8275H191.511V48.0796H182.104V45.9544C179.447 47.8726 176.239 49.0001 172.779 49.0001C163.622 49.0001 156.2 41.1446 156.2 31.4543C156.2 21.7639 163.622 13.9084 172.779 13.9084C176.239 13.9084 179.447 15.036 182.104 16.9547ZM173.551 40.0102C178.259 40.0102 182.075 36.1796 182.075 31.4546C182.075 26.7297 178.259 22.9001 173.551 22.9001C168.843 22.9001 165.027 26.7297 165.027 31.4546C165.027 36.1796 168.843 40.0102 173.551 40.0102ZM195.593 42.5329C195.593 39.0821 198.236 36.2852 201.496 36.2852C204.756 36.2852 207.4 39.0821 207.4 42.5329C207.4 45.9827 204.756 48.7802 201.496 48.7802C198.236 48.7802 195.593 45.9827 195.593 42.5329ZM139.482 13.9332C135.724 13.9332 132.168 15.1679 129.79 18.5743V14.8295H120.424V48.0796H129.905V30.6055C129.905 25.549 133.109 23.0728 136.967 23.0728C141.101 23.0728 143.478 25.6867 143.478 30.5367V48.0796H152.874V26.9339C152.874 19.1957 147.06 13.9332 139.482 13.9332ZM106.819 14.8278V19.1586C108.705 16.5608 112.218 14.8297 116.038 14.8297V24.5055C116.034 24.5055 116.03 24.5054 116.027 24.5053C116.023 24.5052 116.019 24.505 116.015 24.5049L115.986 24.5034L115.986 24.5034L115.967 24.5023C115.954 24.5017 115.94 24.5012 115.927 24.5012C112.204 24.5012 106.84 27.3166 106.84 32.5545V48.0794H97.1873V14.8278H106.819Z" fill="#17120F"/>
</svg>
