<svg width="73" height="89" viewBox="0 0 73 89" fill="none" xmlns="http://www.w3.org/2000/svg">
<path fill-rule="evenodd" clip-rule="evenodd" d="M20.554 85.2478L22.0335 75.5347L18.7377 75.4553H3L13.9372 3.77815C13.9712 3.5611 14.0814 3.35962 14.2423 3.21629C14.4039 3.07295 14.6099 2.99432 14.8255 2.99432H41.3617C50.172 2.99432 56.2515 4.88878 59.4252 8.62854C60.9134 10.3829 61.8612 12.2168 62.32 14.2341C62.801 16.3513 62.8089 18.8805 62.3398 21.9659L62.3057 22.1903V24.1675L63.7939 25.0389C65.0467 25.7261 66.0428 26.5124 66.8067 27.4125C68.0794 28.913 68.9027 30.8198 69.2506 33.0795C69.6104 35.404 69.4915 38.1707 68.9027 41.3027C68.2236 44.9049 67.1261 48.0427 65.6434 50.6095C64.2805 52.9749 62.5434 54.9374 60.4807 56.4575C58.5115 57.9023 56.1723 58.999 53.5271 59.701C50.9636 60.3906 48.0411 60.7387 44.8357 60.7387H42.7706C41.2943 60.7387 39.86 61.2883 38.734 62.2736C37.6048 63.2794 36.8583 64.6537 36.6293 66.1567L36.4732 67.0314L33.8589 84.1519L33.7409 84.7801C33.7092 84.9791 33.6553 85.0783 33.576 85.1454C33.5055 85.2068 33.4041 85.2478 33.305 85.2478H20.554Z" fill="#28356A"/>
<path fill-rule="evenodd" clip-rule="evenodd" d="M65.2043 22.4186C65.1259 22.942 65.0347 23.4768 64.9333 24.0264C61.4339 42.5975 49.461 49.013 34.1702 49.013H26.3846C24.5144 49.013 22.9383 50.4161 22.6475 52.3228L17.5323 85.8586C17.3429 87.1109 18.2764 88.2388 19.4983 88.2388H33.3073C34.9421 88.2388 36.3312 87.011 36.5887 85.3443L36.7242 84.6194L39.3242 67.5661L39.4914 66.6307C39.7458 64.9582 41.1381 63.7296 42.7729 63.7296H44.838C58.2166 63.7296 68.6902 58.1159 71.7514 41.8693C73.0296 35.0827 72.3679 29.4157 68.9842 25.4303C67.9604 24.2287 66.6901 23.2311 65.2043 22.4186Z" fill="#298FC2"/>
<path fill-rule="evenodd" clip-rule="evenodd" d="M61.5411 20.9101C61.0062 20.7488 60.4547 20.603 59.8889 20.4711C59.3199 20.3425 58.7375 20.2287 58.1376 20.1288C56.0385 19.7782 53.738 19.6119 51.2744 19.6119H30.4754C29.9627 19.6119 29.4761 19.7315 29.0411 19.9477C28.0814 20.4244 27.369 21.3631 27.1963 22.5122L22.7713 51.4785L22.6445 52.323C22.9354 50.4162 24.5115 49.0132 26.3816 49.0132H34.1673C49.4581 49.0132 61.431 42.5943 64.9304 24.0266C65.035 23.477 65.1229 22.9422 65.2014 22.4188C64.3162 21.9331 63.3574 21.5179 62.3248 21.164C62.0697 21.0764 61.8066 20.992 61.5411 20.9101Z" fill="#22284F"/>
<path fill-rule="evenodd" clip-rule="evenodd" d="M27.1985 22.5123C27.3712 21.3632 28.0836 20.4245 29.0432 19.9511C29.4815 19.7341 29.9648 19.6145 30.4775 19.6145H51.2765C53.7402 19.6145 56.0407 19.7816 58.1398 20.1321C58.7397 20.2312 59.3221 20.3459 59.8911 20.4745C60.4569 20.6055 61.0084 20.7521 61.5433 20.9127C61.8088 20.9946 62.0719 21.0798 62.3294 21.1641C63.3619 21.518 64.3216 21.9365 65.2067 22.4189C66.248 15.5561 65.198 10.8835 61.6083 6.65229C57.6501 1.99356 50.5071 0 41.3664 0H14.8294C12.9624 0 11.3696 1.40302 11.0811 3.31304L0.0282869 75.7273C-0.189632 77.1598 0.87936 78.4523 2.27721 78.4523H18.66L27.1985 22.5123Z" fill="#28356A"/>
</svg>
