<svg width="193" height="45" viewBox="0 0 193 45" fill="none" xmlns="http://www.w3.org/2000/svg">
<path d="M13.3576 15.055C14.0075 14.9019 14.5947 14.5796 15.1114 14.0868C15.7717 13.47 16.2169 12.6075 16.4531 11.511C16.6037 10.797 16.6686 10.09 16.6234 9.39233C16.5561 8.33486 16.2827 7.48457 15.7999 6.82735C15.3143 6.16167 14.4145 5.82719 13.1063 5.82719C12.5482 5.82719 12.1726 5.95967 11.9604 6.21053C11.7613 6.47454 11.6164 6.87057 11.5039 7.40564L9.77312 15.4745C11.5223 15.3402 12.7166 15.196 13.3576 15.055ZM8.43243 27.4215C8.72795 27.5196 9.19242 27.5662 9.81359 27.5662C12.103 27.5662 13.6851 26.5096 14.5599 24.4064C15.0743 23.1601 15.2978 21.8551 15.2192 20.5092C15.1227 18.8584 14.4776 17.7497 13.303 17.1803C12.6042 16.8392 11.3496 16.6283 9.53877 16.5489L7.69313 25.3197C7.65596 25.4592 7.61925 25.618 7.59384 25.8082C7.58114 25.9877 7.58114 26.1897 7.59714 26.4265C7.62866 26.915 7.90302 27.2462 8.43243 27.4215ZM0.222587 27.6709C0.697408 27.5713 1.05223 27.4426 1.2767 27.2848C1.79481 26.9188 2.15952 26.2235 2.38305 25.1919L5.85267 9.07523C5.94914 8.59606 6.01738 8.19816 6.0555 7.882C6.09832 7.56678 6.11479 7.32155 6.10208 7.14398C6.06491 6.50226 5.85644 6.09825 5.48562 5.93242C5.35338 5.87558 5.1915 5.81967 4.98538 5.77364L5.23103 4.65369H13.1364C15.8343 4.65369 17.95 5.07743 19.479 5.93289C21.0197 6.77708 21.846 8.13991 21.9618 10.0383C22.0742 11.8742 21.2469 13.3399 19.4813 14.4363C18.5303 15.0334 17.2432 15.5309 15.6089 15.9312C17.158 16.4714 18.263 17.0117 18.9293 17.543C20.0507 18.4454 20.6601 19.6833 20.7491 21.2448C20.8766 23.224 20.1561 24.9645 18.6173 26.4561C17.0733 27.9434 14.3933 28.6856 10.5694 28.6856H0L0.222587 27.6709Z" fill="#0069AC"/>
<path d="M33.1019 14.4222C32.8563 13.8843 32.4252 13.6212 31.8172 13.6212C30.5081 13.6212 29.2492 15.1555 28.0347 18.2283C26.9594 20.9605 26.4615 23.0421 26.5354 24.4895C26.5622 25.0659 26.7264 25.5611 27.029 25.9843C27.3438 26.4057 27.7354 26.6176 28.2013 26.6176C29.405 26.6284 30.6794 25.0499 32.0323 21.8794C32.98 19.2238 33.412 17.1177 33.3344 15.5661C33.3137 15.0958 33.2375 14.712 33.1019 14.4222ZM24.8568 16.3703C26.8958 13.5319 29.0422 12.1141 31.2925 12.1141C32.2144 12.1141 32.8982 12.3819 33.3612 12.9137C33.6346 13.2425 33.8939 13.7922 34.1353 14.5645L35.5382 12.5792H38.668L36.5203 20.7933C36.2191 21.9898 36.0045 22.8955 35.8854 23.5302C35.6304 24.7347 35.5127 25.5897 35.5391 26.1046C35.5504 26.3193 35.605 26.4673 35.7057 26.5462C35.804 26.6284 35.9061 26.6669 36.0219 26.6669C36.2384 26.6669 36.4341 26.5936 36.6243 26.4386C36.8191 26.2761 37.037 26.0524 37.2605 25.7537L37.4191 25.5672C37.6657 25.7278 37.988 25.9538 38.2614 26.1459C37.7076 26.8943 37.1701 27.5139 36.637 28.0194C35.804 28.8269 34.9236 29.2295 34.028 29.2295C33.4718 29.2295 32.9264 29.0247 32.3876 28.617C31.8502 28.2064 31.5617 27.6079 31.5222 26.8074C31.5095 26.5105 31.6252 25.7828 31.8638 24.6257L31.741 24.8263C31.6252 25.0354 31.4318 25.3473 31.1744 25.7532C30.5838 26.7158 29.8756 27.5285 29.038 28.1974C28.2177 28.8608 27.2784 29.1924 26.2286 29.1924C25.2657 29.1924 24.3679 28.8392 23.5095 28.1204C22.6545 27.411 22.1782 26.1995 22.0902 24.4885C21.9599 21.8498 22.8827 19.1444 24.8568 16.3703Z" fill="#0069AC"/>
<path d="M38.9766 28.6855L41.7766 16.5888C41.882 16.1256 41.9549 15.7511 42.0048 15.4834C42.0975 14.9849 42.1403 14.6317 42.1323 14.433C42.1045 14.0012 41.954 13.732 41.6815 13.6245C41.538 13.5737 41.3187 13.5258 41.0316 13.4915L41.1973 12.5783H47.0057L45.2354 18.7948L45.3295 18.8437C45.2739 18.9043 45.5944 18.3725 46.305 17.2493C47.0104 16.1162 47.6918 15.1959 48.344 14.494C48.9963 13.7795 49.68 13.2148 50.3934 12.792C51.129 12.3617 51.897 12.1418 52.7257 12.1418C53.481 12.1418 54.1426 12.3617 54.688 12.792C55.2499 13.2252 55.5544 13.9312 55.609 14.9201C55.6565 15.8305 55.2207 17.8365 54.3233 20.9478C53.4094 24.0531 52.961 25.7104 52.976 25.9298C52.9807 26.1445 53.057 26.3056 53.1916 26.4259C53.3271 26.5264 53.4579 26.5823 53.5892 26.5823C53.88 26.5823 54.2758 26.2483 54.7948 25.5794L55.6485 26.1238C55.2753 26.6763 54.9393 27.1118 54.6311 27.4402C53.608 28.5296 52.4927 29.0745 51.2805 29.0745C50.6353 29.0745 50.0466 28.8814 49.5102 28.5117C48.9878 28.1378 48.705 27.5454 48.6636 26.7378C48.6405 26.2239 48.7262 25.4732 48.9186 24.49C49.12 23.5095 49.368 22.5033 49.6692 21.4571L51.1972 16.088L51.2659 15.7582C51.281 15.6642 51.2904 15.5684 51.2904 15.4744C51.2739 15.209 51.1732 15.0192 50.9751 14.9201C50.7967 14.8116 50.5986 14.7594 50.3845 14.7594C49.6509 14.7594 48.8542 15.3279 48.0085 16.476C47.1619 17.6129 46.4782 18.7427 45.9591 19.8819C45.3987 21.1066 44.9455 22.352 44.5855 23.6148C44.2274 24.8808 43.8048 26.5697 43.3215 28.686H38.9766V28.6855Z" fill="#0069AC"/>
<path d="M56.3496 28.6855C56.3496 28.6855 61.0545 7.61317 61.0903 7.3858C61.1261 7.16782 61.1402 6.95313 61.1322 6.7375C61.1011 6.20477 60.9157 5.87593 60.5689 5.75755C60.4023 5.70258 60.1877 5.66265 59.9086 5.6354L60.1228 4.66296H65.9962L62.6235 20.0003C63.9303 19.0198 65.0738 18.0873 66.0385 17.215C67.5284 15.846 68.2653 14.8914 68.2338 14.3517C68.2173 13.9669 68.0286 13.7278 67.6757 13.6305C67.5171 13.5925 67.3467 13.5526 67.151 13.5263L67.3604 12.5646L72.6488 12.6224L72.3011 13.841C71.3444 13.8744 71.4055 13.9585 69.0653 16.1777C69.0653 16.1777 67.3251 17.8196 67.0959 18.023L66.9208 18.1836C66.951 18.2785 67.0959 18.8906 67.3599 20.0162C67.6667 21.3189 67.9034 22.2021 68.0526 22.6686C68.582 24.2334 68.9599 25.2585 69.1975 25.7358C69.4408 26.2065 69.7787 26.4395 70.1947 26.4395C70.6258 26.4395 71.0069 26.2112 71.3613 25.7527C71.3971 25.7067 71.4437 25.6442 71.4888 25.5765L72.2451 26.145C71.9114 26.6998 71.5477 27.2165 71.1575 27.6849C70.415 28.5742 69.5185 29.0195 68.4757 29.0195C67.6846 29.0195 67.007 28.7532 66.4493 28.2317C65.8954 27.7056 65.4239 27.0023 65.0432 26.1248C64.6329 25.2012 64.2776 24.1404 63.9797 22.9345C63.703 21.729 63.5524 21.0742 63.5467 20.9694L62.1948 21.9503L60.7383 28.6865H56.3496V28.6855Z" fill="#0069AC"/>
<path d="M128.728 18.264H132.804C134.359 18.264 135.681 18.5328 135.681 20.3235C135.681 22.2727 133.861 22.7406 132.538 22.7406H127.781L128.728 18.264ZM119.369 28.4169H133.179C138.447 28.4169 143.096 26.123 143.096 20.3306C143.096 18.1132 141.684 15.988 139.453 15.5154V15.451H139.486C142.389 14.6801 143.905 12.6892 143.905 9.66288C143.905 6.18935 141.95 4.37366 136.722 4.37366H124.361L119.369 28.4169ZM130.384 10.1491H134.19C135.508 10.1491 136.486 10.4178 136.486 11.8652C136.486 13.3502 135.002 13.7838 133.825 13.7838H129.639L130.384 10.1491Z" fill="#0069AC"/>
<path d="M149.42 28.4164H156.834L160.548 10.5315H167.225L168.512 4.37415H147.73L146.451 10.5315H153.128L149.42 28.4164Z" fill="#0069AC"/>
<path d="M166.145 28.4164H173.192L175.99 14.9474H176.056L180.474 28.4164H187.759L192.823 4.37415H185.768L183.071 17.5058H183.007L178.488 4.37415H171.13L166.145 28.4164Z" fill="#0069AC"/>
<path d="M116.623 45C116.846 44.1812 116.754 44.1859 117.302 41.9788C117.696 39.8024 120.096 36.4702 124.327 36.1282C125.769 35.9558 181.162 33.6074 193 32.7797L192.644 34.8227C181.493 36.2621 131.035 43.0918 116.623 45Z" fill="#E31C24"/>
<path d="M92.4043 28.4197V32.7863L96.1958 30.6L99.9897 32.7863V28.4197L96.1958 26.2301L92.4043 28.4197Z" fill="#A68561"/>
<path d="M107.573 28.4196V24.0418L96.195 17.4846L84.8242 24.0418V28.4196L96.195 21.8554L107.573 28.4196Z" fill="#A68561"/>
<path d="M81.0273 8.74303L96.1967 0L111.368 8.74303V26.23L107.574 28.4197V10.9327L96.1967 4.37222L84.8226 10.9327V28.4197L81.0273 26.23V8.74303Z" fill="#0069AC"/>
<path d="M96.196 8.74304L103.782 13.1167V30.6009L99.9908 32.7839V15.2993L96.196 13.1167L92.4063 15.2993V32.7839L88.6172 30.6009V13.1167L96.196 8.74304Z" fill="#0069AC"/>
</svg>
