<svg width="193" height="49" viewBox="0 0 193 49" fill="none" xmlns="http://www.w3.org/2000/svg">
<path fill-rule="evenodd" clip-rule="evenodd" d="M23.7396 39.468L23.5995 39.6024C21.3513 41.8361 18.7483 43.0191 16.0685 43.0191C10.474 43.0191 6.41138 38.925 6.41138 33.2768C6.41138 27.6396 10.474 23.5422 16.0685 23.5422C18.7483 23.5422 21.3502 24.7285 23.5995 26.9655L23.7396 27.1021L27.3379 22.8582L27.2418 22.7437C24.2514 19.2951 20.6588 17.6176 16.2437 17.6176C11.8161 17.6176 7.7637 19.0715 4.84553 21.6918C1.67204 24.5324 0 28.5351 0 33.2746C0 38.0141 1.67317 42.0278 4.84553 44.8673C7.7637 47.5009 11.8161 48.9449 16.2437 48.9449C20.6588 48.9449 24.2514 47.2685 27.2418 43.8187L27.3379 43.713L23.7396 39.468Z" fill="#004685"/>
<path fill-rule="evenodd" clip-rule="evenodd" d="M30.9746 48.3678H37.3329V18.11H30.9746V48.3678Z" fill="#004685"/>
<path fill-rule="evenodd" clip-rule="evenodd" d="M62.2401 41.79C60.5409 42.7967 58.9638 43.3045 57.5436 43.3045C55.4897 43.3045 54.5611 42.2471 54.5611 39.8922V23.8353H61.0391V18.1376H54.5611V8.72131L48.3305 11.9739V18.1376H42.9551V23.8353H48.3305V40.9176C48.3305 45.568 51.1583 48.7478 55.3813 48.8326C58.2452 48.8866 59.9726 48.0539 61.021 47.4448L61.0854 47.4019L62.6129 41.5664L62.2401 41.79Z" fill="#004685"/>
<path fill-rule="evenodd" clip-rule="evenodd" d="M67.502 48.3678H73.8659V18.11H67.502V48.3678Z" fill="#004685"/>
<path fill-rule="evenodd" clip-rule="evenodd" d="M77.573 12.8043C71.7649 4.78358 62.1201 0 52.3071 0C42.4963 0 32.8481 4.78468 27.0502 12.8043L26.752 13.2162H34.0671L34.1451 13.1303C39.1251 8.12427 45.6234 5.47418 52.3071 5.47418C58.9885 5.47418 65.4857 8.12427 70.4736 13.1303L70.5583 13.2162H77.8656L77.573 12.8043Z" fill="#ED1C2E"/>
<path fill-rule="evenodd" clip-rule="evenodd" d="M86.0064 25.3002L85.9205 25.4114V41.0641L85.9827 41.1599C87.9857 44.179 91.2496 45.9853 94.7168 45.9853C100.076 45.9853 102.796 41.5796 102.796 32.898C102.796 25.1361 99.7872 20.6928 94.5383 20.6928C91.3547 20.6917 88.484 22.2426 86.0064 25.3002ZM193 48.262V48.3678C192.044 48.3678 189.545 48.3678 189.159 48.3678C188.941 47.9382 181.112 31.7756 181.112 31.7756L175.267 39.7644C175.267 39.7644 175.267 47.6529 175.267 48.3678C174.663 48.3678 172.235 48.3678 171.639 48.3678C171.639 47.6067 171.639 9.06159 171.639 8.61771C171.958 8.44038 174.412 7.06798 175.267 6.59766C175.267 7.87974 175.267 35.4599 175.267 35.4599L177.25 32.4574C177.245 32.4673 186.145 19.9053 187.284 18.3049C187.603 18.3049 190.187 18.3049 191.256 18.3049C190.41 19.4075 183.414 28.7973 183.414 28.7973C183.414 28.7973 192.094 46.4424 193 48.262ZM120.679 49H119.139C116.013 48.8238 110.384 47.4095 110.384 39.5364C110.384 32.5411 116.306 30.0573 121.855 30.0573C124.644 30.0573 127.396 30.6819 129.391 31.7756L129.99 32.0961V27.7817C129.99 22.9971 127.593 20.5739 122.853 20.5739C119.932 20.5739 117.294 21.2898 114.596 22.7768C114.355 22.2426 113.515 20.4329 113.283 19.9218C116.108 18.4668 119.597 17.6551 123.151 17.6551C130.193 17.6551 133.618 20.7909 133.618 27.2531C133.618 27.2531 133.618 47.6122 133.618 48.3678C133.016 48.3678 130.588 48.3678 129.989 48.3678C129.989 47.741 129.989 43.9829 129.989 43.9829L129.286 44.744C126.805 47.4062 123.987 48.8105 120.679 49ZM95.7393 49H94.3045C91.3027 48.8194 88.85 47.5483 86.6266 45.0414L85.9217 44.2373C85.9217 44.2373 85.9217 47.7554 85.9217 48.3667C85.3274 48.3667 82.8996 48.3667 82.3008 48.3667C82.3008 47.6056 82.3008 9.06049 82.3008 8.61661C82.6069 8.43928 85.0721 7.06687 85.9217 6.59656C85.9217 7.83348 85.9217 22.681 85.9217 22.681L86.6221 21.9309C89.2962 19.0528 92.2539 17.654 95.6545 17.654C102.461 17.654 106.368 23.1832 106.368 32.8341C106.368 42.3385 102.217 48.5947 95.7393 49ZM113.94 39.2423C113.94 43.7395 116.329 46.2133 120.668 46.2133C124.365 46.2133 127.644 44.5116 129.919 41.4176L129.989 41.3119V34.7209L129.787 34.6074C127.471 33.3198 125.102 32.7988 121.613 32.7988C116.814 32.7988 113.94 35.2088 113.94 39.2423ZM145.458 21.8857C147.327 19.1596 150.261 17.654 153.694 17.654C160.534 17.654 164.161 21.9088 164.161 29.9582C164.161 29.9582 164.161 47.6133 164.161 48.3667C163.562 48.3667 161.131 48.3667 160.524 48.3667C160.524 47.6133 160.524 30.7215 160.524 30.7215C160.524 23.8727 158.083 20.6906 152.802 20.6906C147.744 20.6906 144.722 24.4444 144.722 30.7215C144.722 30.7215 144.722 47.6133 144.722 48.3667C144.128 48.3667 141.69 48.3667 141.096 48.3667C141.096 47.6111 141.096 19.0539 141.096 18.3038C141.69 18.3038 144.128 18.3038 144.722 18.3038C144.722 18.9261 144.722 22.964 144.722 22.964L145.458 21.8857Z" fill="#004685"/>
</svg>
