<svg width="193" height="32" viewBox="0 0 193 32" fill="none" xmlns="http://www.w3.org/2000/svg">
<path fill-rule="evenodd" clip-rule="evenodd" d="M4.60337 5.31689H16.5324C18.4095 5.31689 19.8586 5.74884 20.8625 6.61805C21.8717 7.4806 22.3703 8.58845 22.3703 9.94959C22.3703 11.3881 21.8583 12.6012 20.8318 13.5758C19.7986 14.557 18.0949 15.2089 15.7165 15.5288C17.5869 15.6941 19.0147 16.2354 19.9893 17.1513C20.9625 18.0591 21.4491 19.2283 21.4491 20.6441C21.4491 21.916 21.0731 23.0411 20.3265 24.025C19.7786 24.7529 18.8414 25.3995 17.5149 25.9687C16.1844 26.542 14.754 26.8259 13.2329 26.8259H0L0.31729 25.5261H1.7171C2.53165 25.5261 3.04225 25.0902 3.25422 24.2196L7.37366 8.04052C7.42032 7.84988 7.44431 7.65524 7.44431 7.47793C7.44431 7.2113 7.34299 7.002 7.13902 6.85268C6.93638 6.69404 6.56443 6.61805 6.02984 6.61805H4.29808L4.60337 5.31689ZM9.60668 16.3714L7.63495 24.057C7.57363 24.269 7.54963 24.4743 7.54963 24.6622C7.54963 24.9355 7.65628 25.1395 7.86959 25.2715C8.08422 25.4101 8.50683 25.4688 9.14941 25.4688H11.4944C12.6009 25.4688 13.5221 25.2622 14.27 24.8329C15.0193 24.4049 15.6379 23.7317 16.1231 22.7945C16.6017 21.8613 16.8457 20.8734 16.8457 19.8402C16.8457 18.767 16.4951 17.9192 15.8085 17.2966C15.1126 16.6767 14.1061 16.3714 12.7742 16.3714H9.60668ZM10.0066 15.0169H12.7836C13.6155 15.0169 14.362 14.8636 15.0153 14.565C15.8858 14.1623 16.5857 13.5291 17.0977 12.6786C17.6136 11.8213 17.8709 10.8495 17.8709 9.76562C17.8709 8.57245 17.5136 7.72057 16.791 7.2073C16.2844 6.85268 15.3566 6.67138 14.0074 6.67138C13.2209 6.67138 12.6903 6.75803 12.4183 6.91801C12.1463 7.08065 11.949 7.39394 11.8264 7.85121L10.0066 15.0169Z" fill="black"/>
<path fill-rule="evenodd" clip-rule="evenodd" d="M36.8869 5.31531H38.8253L41.2569 23.8634C41.3289 24.4367 41.5076 24.8406 41.7875 25.0593C42.1768 25.3712 42.6914 25.5259 43.3353 25.5259H43.9766L43.6353 26.8257H34.1952L34.5139 25.5259H35.2071C35.9323 25.5259 36.4309 25.4326 36.6922 25.2312C36.9589 25.0366 37.0908 24.742 37.0908 24.342C37.0908 24.2007 37.0748 24.0434 37.0468 23.8634L36.5376 20H29.6025L28.2267 22.237C27.8468 22.8742 27.6588 23.4622 27.6588 23.9901C27.6588 24.474 27.8068 24.846 28.1107 25.1179C28.408 25.3926 28.8733 25.5259 29.4932 25.5259H30.0598L29.7385 26.8257H22.3809L22.7021 25.5259C23.3354 25.4805 23.8407 25.3259 24.2139 25.0526C24.9245 24.522 25.4591 23.9621 25.8204 23.3635L36.8869 5.31531ZM35.3151 10.6839L30.5984 18.3748H36.3269L35.3151 10.6839Z" fill="black"/>
<path fill-rule="evenodd" clip-rule="evenodd" d="M50.6364 5.31531H56.8223L63.7533 20.3053L66.1943 9.7427C66.3036 9.30143 66.3596 8.93215 66.3596 8.66152C66.3596 8.0376 66.161 7.543 65.769 7.17239C65.3798 6.8031 64.8505 6.61646 64.1932 6.61646H63.6L63.9479 5.31531H71.0283L70.6644 6.61646C69.9285 6.65512 69.3605 6.86976 68.9726 7.26171C68.426 7.8163 68.0407 8.56286 67.8141 9.50673L63.816 26.827H62.2309L54.2533 9.74803L51.0884 21.6104C50.9497 22.1783 50.8777 22.6343 50.8777 22.9889C50.8777 23.7394 51.1244 24.3514 51.6056 24.806C52.0896 25.2686 52.7975 25.5059 53.7187 25.5272L53.4134 26.827H45.5078L45.8291 25.5272C46.745 25.4819 47.4809 25.2059 48.0581 24.69C48.634 24.1674 49.0367 23.4488 49.2673 22.5343L52.9641 8.66685C53.0574 8.32156 53.1054 8.0616 53.1054 7.90162C53.1054 7.50434 52.9495 7.18838 52.6415 6.95642C52.3335 6.72578 51.7843 6.61646 50.9991 6.61646H50.2925L50.6364 5.31531Z" fill="black"/>
<path fill-rule="evenodd" clip-rule="evenodd" d="M74.5839 5.31517H84.1626L83.788 6.61632H82.6961C82.2122 6.61632 81.8469 6.72564 81.6003 6.95361C81.347 7.18558 81.1457 7.59085 81.0017 8.17744L78.8286 16.7283L87.0728 9.1933C87.6754 8.62005 87.978 8.12012 87.978 7.69751C87.978 7.37888 87.8514 7.12159 87.5994 6.91761C87.3541 6.71497 86.9662 6.61365 86.4516 6.61365H85.9117L86.2436 5.3125H94.1625L93.8199 6.61365C92.9787 6.68031 92.2588 6.86695 91.6615 7.15225C91.063 7.44554 90.3391 8.00013 89.4752 8.81335L84.0693 13.7593L88.7926 24.1739C88.9432 24.5192 89.1152 24.7765 89.3112 24.9525C89.5112 25.1338 89.8031 25.2804 90.1924 25.4057C90.4417 25.4777 90.9043 25.5231 91.5829 25.5231L91.2443 26.8229H81.6376L81.9882 25.5231H83.232C83.7053 25.5231 84.0426 25.4417 84.2466 25.2831C84.4492 25.1191 84.5519 24.9071 84.5519 24.6498C84.5519 24.4459 84.5119 24.2566 84.4252 24.0766L81.0123 16.5536L78.2207 19.0959L76.8916 24.3326C76.8622 24.4392 76.8516 24.5512 76.8516 24.6645C76.8516 24.9311 76.9556 25.1444 77.1662 25.2898C77.3795 25.4444 77.7475 25.5217 78.2794 25.5217H79.7445L79.3992 26.8215H69.6152L69.9512 25.5217H70.7791C71.335 25.5217 71.7509 25.4124 72.0256 25.2018C72.2935 24.9911 72.4922 24.6485 72.6108 24.1726L76.7289 7.9868C76.7756 7.83082 76.7982 7.67218 76.7982 7.5122C76.7982 7.22557 76.6943 7.00827 76.4796 6.84696C76.265 6.69098 75.905 6.61099 75.3838 6.61099H74.2626L74.5839 5.31517Z" fill="black"/>
<path fill-rule="evenodd" clip-rule="evenodd" d="M134.541 5.22852H144.38C147.191 5.22852 149.34 5.99374 150.831 7.5402C152.315 9.07599 153.061 11.229 153.061 13.974C153.061 15.7671 152.739 17.5202 152.088 19.2506C151.439 20.9837 150.607 22.3862 149.606 23.4553C148.595 24.5325 147.311 25.3938 145.73 26.0377C144.154 26.6909 142.379 27.0162 140.419 27.0162H130.039L130.388 25.699H131.54C132.331 25.699 132.836 25.2191 133.071 24.2579L137.253 7.82816C137.291 7.69751 137.307 7.57086 137.307 7.43088C137.307 7.14959 137.198 6.93228 136.986 6.7803C136.771 6.62566 136.356 6.54434 135.752 6.54434H134.137L134.541 5.22852ZM140.196 25.6404C141.252 25.6404 142.259 25.3698 143.212 24.8205C144.164 24.2672 144.994 23.478 145.712 22.4395C146.426 21.4036 147.051 19.9198 147.589 17.9761C148.123 16.0404 148.394 14.1873 148.394 12.4169C148.394 10.5118 147.966 9.03066 147.106 7.97081C146.357 7.06026 145.201 6.60033 143.635 6.60033C142.928 6.60033 142.452 6.68165 142.2 6.84163C141.955 7.00427 141.771 7.29223 141.661 7.70018L137.434 24.3032C137.397 24.4539 137.378 24.5885 137.378 24.7152C137.378 25.0098 137.459 25.2311 137.615 25.3631C137.83 25.5537 138.141 25.639 138.558 25.639H140.196V25.6404Z" fill="black"/>
<path fill-rule="evenodd" clip-rule="evenodd" d="M159.706 5.22852H169.412L169.03 6.547H167.925C167.433 6.547 167.065 6.65765 166.813 6.88962C166.555 7.12426 166.359 7.53487 166.211 8.13078L164.01 16.7909L172.363 9.15864C172.969 8.57739 173.278 8.07213 173.278 7.64418C173.278 7.32156 173.151 7.06026 172.895 6.85496C172.643 6.64965 172.254 6.547 171.73 6.547H171.186L171.515 5.22852H179.542L179.197 6.547C178.344 6.61366 177.609 6.80297 177.007 7.09226C176.404 7.38955 175.668 7.95081 174.798 8.7747L169.312 13.7847L174.103 24.3339C174.252 24.6832 174.43 24.9445 174.631 25.1218C174.83 25.3058 175.128 25.4537 175.52 25.5804C175.775 25.6537 176.243 25.7004 176.925 25.7004L176.588 27.0175H166.857L167.211 25.7004H168.472C168.949 25.7004 169.293 25.6177 169.5 25.4577C169.705 25.2911 169.806 25.0778 169.806 24.8165C169.806 24.6099 169.766 24.4179 169.682 24.2366L166.225 16.6163L163.394 19.1906L162.047 24.4952C162.018 24.6032 162.006 24.7165 162.006 24.8312C162.006 25.1018 162.115 25.3178 162.327 25.4644C162.543 25.6204 162.915 25.699 163.451 25.699H164.938L164.588 27.0162H154.678L155.012 25.699H155.858C156.417 25.699 156.843 25.5884 157.113 25.3751C157.389 25.1618 157.587 24.8152 157.716 24.3326L161.882 7.93881C161.929 7.7815 161.951 7.62019 161.951 7.45754C161.951 7.16692 161.842 6.94695 161.631 6.7843C161.413 6.62699 161.044 6.54567 160.52 6.54567H159.381L159.706 5.22852Z" fill="black"/>
<path fill-rule="evenodd" clip-rule="evenodd" d="M182.772 5.22852H193L192.664 6.547H191.473C190.918 6.547 190.521 6.63099 190.286 6.80297C190.042 6.97361 189.873 7.2629 189.77 7.66285L185.54 24.3032C185.5 24.4805 185.48 24.6325 185.48 24.7552C185.48 25.0631 185.569 25.2778 185.747 25.4044C186.023 25.6057 186.423 25.7004 186.956 25.7004H188.473L188.134 27.0175H178.15L178.502 25.7004H179.625C180.427 25.7004 180.919 25.3218 181.097 24.5525L185.316 7.9868C185.359 7.7935 185.384 7.60819 185.384 7.42821C185.384 7.15225 185.287 6.93495 185.099 6.78297C184.903 6.62432 184.568 6.547 184.095 6.547H182.462L182.772 5.22852Z" fill="black"/>
<path fill-rule="evenodd" clip-rule="evenodd" d="M112.668 30.5838C112.668 30.5838 110.873 26.723 109.181 23.0862L109.179 23.0808C107.701 19.9026 106.298 16.899 106.248 16.7804C106.144 16.5631 106.005 16.1778 106.125 15.7338C106.216 15.4019 106.596 14.8286 106.869 14.4793C107.389 13.8154 107.545 13.4675 107.616 12.9849L115.255 29.376L115.251 29.3786L116.156 31.321C117.113 31.1291 118.036 30.8411 118.921 30.4852C117.882 28.2548 116.82 25.9658 116.161 24.5486L116.152 24.5526C116.152 24.5526 109.845 11.0012 109.727 10.7505C109.625 10.5319 109.487 10.1466 109.607 9.70534C109.701 9.37338 110.077 8.80013 110.353 8.45084C110.871 7.78693 111.026 7.43498 111.097 6.95371L116.877 19.3547L121.458 29.18C122.29 28.6574 123.059 28.0602 123.772 27.3976C122.396 24.4393 120.555 20.4825 119.643 18.5201L119.631 18.5241C119.631 18.5241 113.327 4.97265 113.207 4.72202C113.107 4.50472 112.967 4.11943 113.09 3.67683C113.18 3.34621 113.559 2.77162 113.832 2.42233C114.353 1.75843 114.508 1.40914 114.575 0.92654L120.447 13.5141L125.833 25.0686C127.718 22.4649 128.841 19.2774 128.841 15.8178C128.839 7.0817 121.758 0 113.022 0C104.287 0 97.2051 7.0817 97.2051 15.8178C97.2051 22.0743 100.854 27.4682 106.124 30.0332C104.5 26.5404 102.824 22.9382 102.766 22.8102C102.666 22.5929 102.523 22.2063 102.643 21.7637C102.736 21.4331 103.112 20.8598 103.388 20.5092C103.907 19.8453 104.063 19.496 104.132 19.0134L109.871 31.317C110.889 31.521 111.943 31.6317 113.022 31.6317C113.07 31.6317 113.108 31.6263 113.154 31.625C112.992 31.2837 112.828 30.9358 112.668 30.5838Z" fill="#ED1C24"/>
</svg>
