<svg width="211" height="38" viewBox="0 0 211 38" fill="none" xmlns="http://www.w3.org/2000/svg">
<path d="M26.463 17.346V5.37803C26.463 3.82203 25.656 2.10103 21.735 2.10103V1.08203H36.655V2.10103C32.738 2.10103 31.935 3.82203 31.935 5.37803V32.321C31.935 33.876 32.738 35.594 36.655 35.594V36.614H21.735V35.594C25.655 35.594 26.463 33.875 26.463 32.321V19.545H10.198V32.32C10.198 33.875 11.001 35.593 14.922 35.593V36.613H0V35.593C3.918 35.593 4.724 33.874 4.724 32.32V5.37803C4.724 3.82203 3.919 2.10103 0 2.10103V1.08203H14.922V2.10103C11.002 2.10103 10.198 3.82203 10.198 5.37803V17.346H26.463Z" fill="black"/>
<path d="M37.9141 25.8271H39.1481C40.8131 30.8191 44.5701 35.3311 50.2601 35.3311C54.6071 35.3311 57.5571 31.5711 56.3261 27.3841C54.1221 19.8691 39.4731 19.5461 39.4731 9.29705C39.4731 3.98205 43.7111 0.331055 48.9721 0.331055C54.6601 0.331055 57.2361 4.30305 58.5261 0.331055H59.6511L60.8321 11.7661H59.4941C58.2581 6.77305 54.7141 2.53405 49.7231 2.53405C46.5021 2.53405 44.0891 4.30306 44.0891 7.68806C44.0891 10.7981 47.4691 12.9981 49.7771 14.3941C57.0761 18.7971 62.0131 21.1051 62.0131 27.5441C62.0131 32.3761 57.9871 37.3661 50.6921 37.3661C45.1101 37.3661 41.2441 33.4521 40.7041 37.3661H39.5251L37.9141 25.8271Z" fill="black"/>
<path d="M79.7585 16.971C85.1775 16.971 88.3455 14.661 88.3455 10.317C88.3455 6.23403 85.7705 4.03303 82.0135 3.33903C77.0745 3.01503 75.3555 2.91003 75.3555 4.78703V16.972H79.7585V16.971ZM75.3555 31.784C75.3555 33.665 75.8405 34.63 79.7585 34.63C85.3395 34.63 89.4735 32.966 89.4735 26.687C89.4735 20.299 83.0845 19.117 78.0395 19.117H75.3545V31.784H75.3555ZM69.8815 5.37803C69.8815 3.82203 69.0765 2.10103 64.7305 2.10103V1.08203H79.1115C87.3795 1.08203 93.8205 3.28403 93.8205 10.156C93.8205 14.662 90.8115 16.972 86.6835 17.884V17.992C91.2955 18.848 95.6425 21.692 95.6425 26.848C95.6425 33.289 90.0635 36.614 81.6365 36.614H64.7305V35.594C69.0765 35.594 69.8815 33.875 69.8815 32.321V5.37803Z" fill="black"/>
<path d="M127.857 12.135H126.57C125.015 6.23 121.097 2.205 114.976 2.205C106.122 2.205 102.311 9.342 102.311 19.003C102.311 26.519 106.227 34.62 115.032 34.62C120.292 34.62 123.887 32.903 127.591 29.255L128.503 30.329C125.23 34.354 119.7 37.04 114.548 37.04C104.083 37.04 96.0859 30.329 96.0859 18.573C96.0859 7.893 103.652 0 114.443 0C121.795 0 124.48 4.406 126.254 0.057H127.377L127.857 12.135Z" fill="black"/>
<path d="M192.948 0.11499H156.848V36.215H192.948V0.11499Z" fill="white"/>
<path d="M156.848 0.0870361H192.948L174.899 18.137L156.848 0.0870361Z" fill="#EE3524"/>
<path d="M156.848 36.186H192.948L174.899 18.137L156.848 36.186Z" fill="#EE3524"/>
<path d="M156.848 0.0870361V36.186L138.797 18.137L156.848 0.0870361Z" fill="#EE3524"/>
<path d="M192.945 0.0870361V36.186L210.996 18.137L192.945 0.0870361Z" fill="#EE3524"/>
</svg>
