<svg width="192" height="57" viewBox="0 0 192 57" fill="none" xmlns="http://www.w3.org/2000/svg">
<path d="M0.199261 39.1701C0.199261 36.3418 0.150672 33.9663 0 31.8468H5.25438L5.50371 35.4874H5.65045C6.83865 33.5656 9.01923 31.2891 13.0844 31.2891C16.2579 31.2891 18.7339 33.1119 19.7734 35.8356H19.875C20.7172 34.4725 21.7056 33.4625 22.8452 32.7577C24.1836 31.7983 25.7237 31.2891 27.7026 31.2891C31.7177 31.2891 35.779 34.0668 35.779 41.9523V56.4447H29.8331V42.8577C29.8331 38.7699 28.4461 36.3418 25.5215 36.3418C23.4411 36.3418 21.9029 37.8585 21.26 39.6273C21.1113 40.228 20.9626 40.9904 20.9626 41.6937V56.4452H15.0152V42.1974C15.0152 38.7699 13.6788 36.3418 10.8513 36.3418C8.57604 36.3418 7.03988 38.1611 6.4897 39.8769C6.24382 40.4821 6.14369 41.1915 6.14369 41.8958V56.4452H0.199261V39.1701Z" fill="#003D79"/>
<path d="M58.9456 50.537C58.9456 52.757 59.0438 54.927 59.2897 56.4457H53.7884L53.3933 53.72H53.2432C51.7551 55.6413 49.228 56.9999 46.1115 56.9999C41.2527 56.9999 38.5273 53.4178 38.5273 49.6777C38.5273 43.4614 43.9241 40.3345 52.85 40.384V39.9803C52.85 38.3636 52.2032 35.6859 47.9407 35.6859C45.5603 35.6859 43.0843 36.4453 41.4495 37.5037L40.2608 33.4634C42.0448 32.3505 45.1667 31.29 48.9807 31.29C56.7145 31.29 58.9461 36.2947 58.9461 41.6446V50.537H58.9456ZM52.9968 44.4278C48.6837 44.3253 44.5729 45.2837 44.5729 49.0214C44.5729 51.4454 46.112 52.5584 48.0423 52.5584C50.4663 52.5584 52.2537 50.9372 52.798 49.1709C52.9448 48.7147 52.9963 48.2135 52.9963 47.8088V44.4278H52.9968Z" fill="#003D79"/>
<path d="M63.1568 39.1701C63.1568 36.3419 63.1052 33.9663 62.9629 31.8469H68.31L68.6065 35.539H68.7576C69.7971 33.6166 72.4248 31.2896 76.438 31.2896C80.6519 31.2896 85.0101 34.0673 85.0101 41.8498V56.4453H78.9165V42.5586C78.9165 39.0206 77.6252 36.3414 74.307 36.3414C71.8815 36.3414 70.1922 38.1096 69.5508 39.98C69.3535 40.5347 69.3029 41.2926 69.3029 41.9969V56.4453H63.1577V39.1701H63.1568Z" fill="#003D79"/>
<path d="M111.434 21.9664V49.5246C111.434 52.0492 111.537 54.78 111.633 56.4452H106.185L105.937 52.558H105.836C104.399 55.2842 101.474 56.9989 97.9583 56.9989C92.2078 56.9989 87.6528 51.9997 87.6528 44.4273C87.5998 36.1917 92.6534 31.289 98.4526 31.289C101.771 31.289 104.151 32.7036 105.241 34.529H105.342V21.9664H111.434ZM105.342 42.0993C105.342 41.5971 105.293 40.9903 105.191 40.4826C104.647 38.0635 102.717 36.0916 99.9402 36.0916C96.0251 36.0916 93.8421 39.6277 93.8421 44.2238C93.8421 48.7153 96.0251 52.0007 99.8926 52.0007C102.365 52.0007 104.548 50.2825 105.142 47.6048C105.293 47.051 105.342 46.4422 105.342 45.787V42.0993H105.342Z" fill="#003D79"/>
<path d="M115.746 56.4452V31.8467H121.894V56.4452H115.746Z" fill="#003D79"/>
<path d="M126.201 39.7789C126.201 36.4449 126.151 34.0673 126.006 31.8473H131.309L131.503 36.5399H131.705C132.895 33.0599 135.716 31.8473 138.299 31.8473C138.89 31.8473 139.238 31.7463 139.73 31.8473V37.3048C139.238 37.2027 138.694 37.1027 137.95 37.1027C135.023 37.1027 133.04 39.021 132.497 41.7953C132.401 42.3525 132.3 43.0123 132.3 43.7201V56.4458H126.202V39.7789H126.201Z" fill="#003D79"/>
<path d="M142.559 56.4452V31.8467H148.699V56.4452H142.559Z" fill="#003D79"/>
<path d="M186.948 5.83377C183.907 2.29769 180.672 3.89741 178.103 5.19898C177.023 5.74273 169.219 10.2522 169.219 10.2522C164.944 12.049 161.614 10.0882 160.307 8.43792C160.172 8.26385 160.055 8.10077 159.967 7.9412L159.665 7.40396C159.198 6.59961 158.638 5.6892 157.95 4.7923C157.582 4.30559 157.172 3.81937 156.719 3.35967C153.796 0.347826 149.119 -1.75861 141.304 2.06959C137.605 4.25506 125.55 11.2747 125.55 11.2747C121.023 13.176 117.557 10.86 116.433 9.16225C116.383 9.09822 116.334 9.02168 116.302 8.95765L116.154 8.70004L115.389 7.42798C115.062 6.90224 114.7 6.3615 114.282 5.80675C113.911 5.32254 113.497 4.84032 113.049 4.37612C110.143 1.38379 105.493 -0.718648 97.7473 3.03652C93.0627 5.76173 82.1692 12.1116 82.1692 12.1116C82.1667 12.1151 82.1667 12.1151 82.1657 12.1151C77.6829 14.7267 74.1914 16.7581 74.1914 16.7581L78.317 21.9214C80.0524 23.6077 83.3166 26.3729 88.3654 24.0414C88.3654 24.0414 102.299 15.8172 102.353 15.7937C114.266 9.13023 120.146 15.4971 122.743 19.7404C122.833 19.873 122.908 20.0171 122.988 20.1461L122.994 20.1521C123.025 20.2037 123.047 20.2517 123.073 20.3002L123.369 20.7909C124.633 22.7473 126.633 24.0108 129.012 23.9528C130.325 23.9258 131.216 23.4886 132.513 22.7548L145.995 14.7847C146.004 14.7802 146.01 14.7757 146.024 14.7722C158.084 8.02824 164.062 14.8118 166.615 19.0551C166.814 19.4223 167.041 19.772 167.27 20.0986C168.534 21.8459 170.278 22.9899 172.492 22.9349C173.954 22.9044 175.594 22.01 175.836 21.8459L192.001 12.3387C192.001 12.3387 190.348 9.79653 186.948 5.83377Z" fill="url(#paint0_linear)"/>
<defs>
<linearGradient id="paint0_linear" x1="84.066" y1="37.2798" x2="210.755" y2="-20.1247" gradientUnits="userSpaceOnUse">
<stop stop-color="#FDB913"/>
<stop offset="0.2247" stop-color="#FFCB05"/>
<stop offset="0.3933" stop-color="#FAA61A"/>
<stop offset="0.5281" stop-color="#FFCB05"/>
<stop offset="0.6461" stop-color="#FAA61A"/>
<stop offset="0.6683" stop-color="#FCB415"/>
<stop offset="0.6975" stop-color="#FFC10E"/>
<stop offset="0.7285" stop-color="#FFC907"/>
<stop offset="0.764" stop-color="#FFCB05"/>
<stop offset="0.7974" stop-color="#FFCB05"/>
<stop offset="1" stop-color="#FFCB05"/>
</linearGradient>
</defs>
</svg>
