<svg width="193" height="109" viewBox="0 0 193 109" fill="none" xmlns="http://www.w3.org/2000/svg">
<path d="M0 109V84.0985H9.35322C11.2471 84.0985 12.7475 84.3392 13.8539 84.8197C14.9595 85.3012 15.8653 86.0506 16.5704 87.0686C17.2752 88.0876 17.6281 89.2134 17.6281 90.4466C17.6281 91.5889 17.3245 92.619 16.7167 93.5352C16.1088 94.4518 15.2527 95.1878 14.1484 95.7418C15.5914 96.1726 16.7298 96.9062 17.5613 97.943C18.393 98.9798 18.8094 100.257 18.8094 101.776C18.8094 103.283 18.4329 104.606 17.6798 105.744C16.9274 106.883 15.9224 107.71 14.6657 108.226C13.4088 108.742 11.6831 109 9.48729 109H0V109ZM3.29369 94.562H8.68928C10.1009 94.562 11.1032 94.4831 11.6986 94.3239C12.5567 94.0865 13.217 93.687 13.6806 93.1266C14.1443 92.5659 14.376 91.8051 14.376 90.8421C14.376 89.9477 14.1649 89.203 13.7431 88.6084C13.3206 88.0141 12.7607 87.6035 12.0623 87.3772C11.3636 87.1502 10.1083 87.037 8.29585 87.037H3.29369V94.562ZM3.29369 106.061H9.49776C10.8678 106.061 11.8773 105.959 12.5277 105.755C13.4686 105.462 14.1838 104.977 14.6752 104.303C15.1662 103.629 15.4121 102.783 15.4121 101.764C15.4121 100.824 15.177 100.029 14.7063 99.378C14.2362 98.727 13.603 98.2516 12.808 97.9507C12.012 97.6509 10.7635 97.5008 9.06177 97.5008H3.29369V106.061Z" fill="black"/>
<path d="M20.5898 109L30.194 84.0985H33.7166L43.9152 109H40.1446L37.2484 101.458H26.7713L24.0642 109H20.5898ZM27.7348 98.7743H36.2174L33.6295 91.8783C32.8288 89.7603 32.2419 88.0389 31.8694 86.7144C31.5479 88.3109 31.0926 89.8967 30.5047 91.4703L27.7348 98.7743Z" fill="black"/>
<path d="M46.4219 109V84.0985H49.7983L62.8906 103.688V84.0985H66.0395V109H62.6627L49.5913 89.4065V109H46.4219Z" fill="black"/>
<path d="M71.5078 109V84.0985H74.8018V96.4472L87.1739 84.0985H91.6431L81.1896 94.1987L92.099 109H87.7483L78.903 96.4076L74.8018 100.371V109H71.5078Z" fill="black"/>
<path d="M112.881 84.0985L108.778 94.7829L104.675 84.0985H97.2656V109H100.146H101.865H102.992V94.1104L106.715 104.565H108.652H108.904H110.84L114.563 94.1104V109H115.69H117.41H120.29V84.0985H112.881Z" fill="black"/>
<path d="M144.368 90.222V84.0985H143.913H128.364H126.266V86.9313V106.136V109H131.554H144.368V104.804V103.252H132.544V99.4227H142.332V93.6752H132.544V90.222H144.368Z" fill="black"/>
<path d="M157.531 89.3063C159.206 89.3063 160.604 90.4983 160.925 92.0817H167.762V89.7059C167.762 86.0294 163.43 83.0496 158.088 83.0496C152.746 83.0496 148.414 86.0294 148.414 89.7059V91.1402V102.343C148.414 105.092 150.836 107.452 154.292 108.467C155.457 108.81 156.74 109 158.087 109C159.518 109 160.875 108.784 162.097 108.401C165.438 107.352 167.761 105.036 167.761 102.343V93.9985H157.508V99.6086C157.508 99.6086 160.871 99.6086 160.979 99.6086C161.086 99.6086 160.607 100.944 160.546 101.053C160.29 101.513 159.944 101.905 159.513 102.207C157.266 103.786 154.066 102.104 154.066 99.3645C154.066 99.3639 154.066 92.7774 154.066 92.7774C154.067 90.8602 155.617 89.3063 157.531 89.3063Z" fill="black"/>
<path d="M191.994 106.045L191.042 103.253L190.035 100.298L189.737 99.4226L187.778 93.6751L186.601 90.2219L184.675 84.5702L184.514 84.0988H178.732L178.571 84.5702L176.645 90.2219L176.171 91.6143L170.246 109H174.415H176.35L177.357 106.045H185.89L186.897 109H193.001L191.994 106.045ZM179.315 100.298L179.613 99.4226L181.572 93.6751L181.623 93.5247L181.675 93.6751L183.633 99.4226L183.931 100.298H179.315Z" fill="black"/>
<path d="M82.9028 56.0931C82.895 56.067 82.8856 56.0414 82.8781 56.0153C82.8751 56.0062 82.8731 55.9961 82.871 55.987C82.8585 55.9444 82.8498 55.9004 82.8376 55.8578H82.7734L82.9433 56.2177C82.9298 56.1757 82.916 56.1344 82.9028 56.0931Z" fill="#E05826"/>
<path d="M88.017 0H57.0115L56.9902 0.0490202L28.1484 65.6356H57.8862L72.5141 33.8172L88.0386 0.0490202L88.017 0Z" fill="#FFC20E"/>
<path d="M136.03 0.265215L135.987 0.167847L104.93 0.185306L120.506 34.0327L135.112 65.8035H164.85L136.03 0.265215Z" fill="#414042"/>
<path d="M110.588 51.6925C110.583 51.62 110.58 51.5468 110.574 51.4746C110.573 51.4632 110.571 51.4521 110.57 51.4407C110.567 51.4111 110.566 51.3816 110.564 51.3524C110.542 51.0965 110.51 50.8437 110.472 50.5929C110.47 50.5788 110.467 50.5643 110.464 50.5502C110.423 50.2806 110.372 50.0137 110.313 49.7495C110.305 49.7156 110.298 49.682 110.29 49.6467C110.246 49.4594 110.198 49.273 110.146 49.0887C109.735 47.5701 109.097 46.1112 108.421 44.688C107.184 42.0832 105.946 39.4787 104.708 36.874L96.4654 19.134H96.4215L88.179 36.874C86.9413 39.4787 85.7025 42.0832 84.4655 44.688C83.7891 46.1119 83.1511 47.5714 82.7402 49.0911C82.6885 49.274 82.6409 49.4587 82.5976 49.6444C82.5899 49.6803 82.5811 49.7159 82.5737 49.7515C82.5152 50.0127 82.4646 50.2759 82.4237 50.5425C82.4207 50.56 82.417 50.5778 82.4146 50.5952C82.3775 50.8447 82.345 51.0969 82.3231 51.3517C82.3207 51.3796 82.3194 51.4078 82.317 51.4356C82.3163 51.4484 82.3136 51.4608 82.3126 51.4736C82.3065 51.5531 82.3032 51.6327 82.2981 51.712C82.2937 51.7794 82.2886 51.8469 82.2856 51.9141C82.2782 52.0709 82.2741 52.2283 82.2734 52.3861C82.2741 52.6551 82.2853 52.9213 82.3032 53.1863C82.3075 53.2541 82.3136 53.3219 82.3194 53.3897C82.3379 53.6137 82.3626 53.8366 82.3926 54.0575C82.3994 54.1042 82.4048 54.1515 82.4119 54.1986C82.495 54.7549 82.6162 55.2992 82.7712 55.8313C82.7736 55.8404 82.7756 55.8505 82.7783 55.8595C82.7861 55.8857 82.7952 55.9116 82.803 55.9378C82.8158 55.9801 82.83 56.0217 82.8432 56.0633L84.1075 58.7662L84.9478 60.0753C85.0987 60.27 85.2544 60.4614 85.4165 60.6481C85.4692 60.7098 85.5239 60.7693 85.5779 60.8297C85.7519 61.0234 85.9302 61.2138 86.1152 61.3971C86.1615 61.4425 86.2091 61.4864 86.2561 61.5314C86.4354 61.7047 86.6194 61.8732 86.8089 62.0371C86.8497 62.072 86.8899 62.1086 86.9318 62.1438C87.1375 62.3181 87.3509 62.485 87.5677 62.6475C87.6191 62.6851 87.6694 62.725 87.721 62.7626C87.9422 62.9241 88.1695 63.0779 88.4009 63.2267C88.4579 63.2632 88.5147 63.2998 88.5728 63.3364C88.8075 63.4825 89.0469 63.6222 89.2921 63.7561C89.3468 63.7857 89.4015 63.8152 89.4565 63.8444C89.7112 63.9787 89.9699 64.108 90.2339 64.2282C90.2738 64.2463 90.3153 64.2631 90.3559 64.2813C90.6287 64.4021 90.9063 64.5173 91.1883 64.6227C91.2028 64.6281 91.2163 64.6338 91.2309 64.6392C91.5226 64.7466 91.8205 64.843 92.1217 64.933C92.164 64.9454 92.2058 64.9591 92.2484 64.9712C92.5388 65.0555 92.8343 65.129 93.1332 65.1959C93.1855 65.2079 93.2386 65.2194 93.2916 65.2308C93.5891 65.2939 93.89 65.3483 94.1946 65.3936C94.2473 65.401 94.2996 65.4081 94.3523 65.4151C94.664 65.4581 94.9778 65.493 95.2952 65.5175C95.334 65.5202 95.3732 65.5219 95.4124 65.5242C95.7471 65.5464 96.0848 65.5605 96.4262 65.5608H96.4265C96.4323 65.5608 96.438 65.5615 96.4438 65.5615H96.4441C96.4498 65.5615 96.4552 65.5608 96.461 65.5608C96.4617 65.5608 96.4617 65.5608 96.462 65.5608C96.8027 65.5605 97.1405 65.5464 97.4755 65.5242C97.5146 65.5219 97.5535 65.5202 97.5926 65.5175C97.9101 65.4933 98.2245 65.4581 98.5355 65.4151C98.5879 65.4081 98.6406 65.401 98.6929 65.3936C98.9975 65.348 99.2988 65.2939 99.5963 65.2308C99.649 65.2197 99.7016 65.2083 99.7543 65.1962C100.053 65.129 100.349 65.0555 100.64 64.9712C100.682 64.9591 100.724 64.9457 100.765 64.9336C101.067 64.8433 101.365 64.7466 101.658 64.6388C101.671 64.6338 101.684 64.6284 101.697 64.6234C101.981 64.518 102.259 64.4025 102.533 64.2809C102.573 64.2635 102.614 64.2467 102.653 64.2285C102.918 64.1087 103.177 63.9791 103.433 63.8438C103.487 63.8152 103.541 63.7867 103.595 63.7575C103.841 63.6232 104.08 63.4832 104.316 63.3358C104.373 63.3002 104.43 63.2639 104.486 63.228C104.718 63.0786 104.946 62.9241 105.167 62.7626C105.218 62.7257 105.268 62.6864 105.319 62.6488C105.537 62.4853 105.75 62.3174 105.958 62.1428C105.998 62.1086 106.038 62.073 106.078 62.0384C106.267 61.8739 106.452 61.7043 106.633 61.5304C106.679 61.4861 106.726 61.4421 106.772 61.3975C106.958 61.2131 107.136 61.0224 107.31 60.829C107.364 60.7686 107.419 60.7095 107.471 60.6477C107.637 60.458 107.796 60.2629 107.95 60.0638C108.003 59.9953 108.055 59.9255 108.106 59.8567C108.255 59.6559 108.399 59.4521 108.535 59.2443C108.582 59.1731 108.626 59.1022 108.671 59.0307C108.796 58.8313 108.917 58.6298 109.032 58.4233C109.063 58.3666 109.093 58.3092 109.124 58.2518L109.782 56.8191C109.834 56.6838 109.885 56.5471 109.933 56.4102C109.937 56.3971 109.942 56.385 109.946 56.3722C109.995 56.2302 110.039 56.0868 110.083 55.9425C110.091 55.9146 110.101 55.8871 110.109 55.8589C110.112 55.8491 110.114 55.8387 110.117 55.8286C110.272 55.2975 110.392 54.7539 110.475 54.1986C110.483 54.1512 110.488 54.1029 110.495 54.0548C110.525 53.8353 110.55 53.613 110.568 53.3897C110.574 53.3216 110.58 53.2537 110.585 53.1856C110.602 52.9207 110.613 52.6544 110.614 52.3855C110.613 52.2283 110.609 52.0715 110.602 51.9168C110.598 51.8429 110.592 51.7677 110.588 51.6925Z" fill="#E05826"/>
<path d="M88.021 0.0489502L72.4961 33.8171L79.6941 49.3766L82.7524 55.8574H82.8165C82.6791 55.3709 82.567 54.8746 82.4906 54.3676C82.4832 54.3206 82.4781 54.2743 82.4714 54.2276C82.441 54.0084 82.4167 53.7875 82.3981 53.5652C82.3924 53.498 82.3859 53.4309 82.3816 53.3631C82.3633 53.0941 82.3515 52.8242 82.3515 52.5509C82.3515 52.5418 82.3522 52.5327 82.3522 52.524C82.3525 52.3665 82.3569 52.2104 82.3643 52.0543C82.367 51.9871 82.3721 51.9203 82.3765 51.8528C82.3816 51.7739 82.3849 51.6947 82.391 51.6158C82.3924 51.603 82.3947 51.5906 82.3957 51.5779C82.3981 51.55 82.3995 51.5218 82.4018 51.4943C82.4234 51.2408 82.4555 50.9899 82.493 50.7415C82.496 50.7237 82.4997 50.7062 82.5021 50.6891C82.543 50.4235 82.594 50.162 82.6524 49.9018C82.6598 49.8662 82.6683 49.8306 82.6764 49.7953C82.7196 49.61 82.7672 49.4263 82.8189 49.244C83.2299 47.7321 83.8675 46.2793 84.5439 44.8624C85.7813 42.2701 87.0197 39.6784 88.2574 37.0864L96.4134 19.1356L88.021 0.0489502Z" fill="#F89A59"/>
<path d="M104.858 0.0412598L120.383 33.8098L113.184 49.3693L110.082 56.1374C110.22 55.6509 110.311 54.8673 110.388 54.3603C110.394 54.3129 110.4 54.2666 110.407 54.2199C110.437 54.001 110.462 53.7798 110.48 53.5575C110.486 53.4907 110.492 53.4232 110.496 53.3554C110.515 53.0864 110.527 52.8165 110.527 52.5435C110.527 52.5345 110.526 52.525 110.526 52.5167C110.525 52.3592 110.521 52.2024 110.514 52.0466C110.511 51.9798 110.506 51.913 110.501 51.8451C110.496 51.7666 110.493 51.687 110.487 51.6084C110.486 51.5953 110.483 51.5829 110.483 51.5705C110.48 51.5423 110.479 51.5141 110.476 51.4866C110.455 51.2334 110.422 50.9823 110.385 50.7338C110.382 50.716 110.379 50.6989 110.376 50.6814C110.335 50.4158 110.284 50.1543 110.226 49.8944C110.218 49.8585 110.21 49.8229 110.202 49.7876C110.159 49.6026 110.111 49.419 110.059 49.2367C109.648 47.7244 109.01 46.272 108.334 44.8551C107.097 42.2627 105.858 39.671 104.621 37.079L96.4648 19.1282L104.858 0.0412598Z" fill="#939598"/>
<path d="M82.9316 56.2177C82.9188 56.1761 82.9042 56.1348 82.8917 56.0931C82.8836 56.067 82.8742 56.0414 82.8668 56.0153C82.8641 56.0062 82.862 55.9961 82.8597 55.987C82.8472 55.9444 82.8387 55.9004 82.8262 55.8578H82.8077H82.7617L82.9316 56.2177Z" fill="#E05826"/>
</svg>
