<svg width="193" height="58" viewBox="0 0 193 58" fill="none" xmlns="http://www.w3.org/2000/svg">
<path fill-rule="evenodd" clip-rule="evenodd" d="M13.6392 20.0067L16.9783 16.6644L20.318 20.0067L16.9783 23.349L13.6392 20.0067ZM29.0619 7.77515C25.1201 11.3421 22.5381 12.5534 21.9197 17.1004C21.3014 21.6473 23.7386 30.9049 23.7386 30.9049C21.866 30.9049 19.9935 30.9049 18.1209 30.9049C18.1209 30.9049 21.9022 35.3517 23.1896 35.586C24.5223 35.7073 25.5635 35.682 25.5635 35.682C27.1429 39.2048 27.7009 43.9819 26.7821 45.4329C26.314 46.8387 22.2171 51.056 16.9505 49.1816C11.6839 47.3073 6.18266 44.2609 5.24577 37.2321C4.30948 30.2033 7.70774 26.9358 10.7501 23.4215C3.962 27.7553 0.798413 32.1942 0.0955957 37.8172C-0.606618 43.4408 2.67038 48.9467 6.29909 51.9931C9.9272 55.0395 15.5455 57.2647 18.7055 56.2104C21.8654 55.1561 27.6014 48.7124 29.2393 45.0809C29.3563 41.3322 29.4462 35.6506 29.4462 35.6506C29.4462 35.6506 38.2438 35.7001 41.4864 35.0437C44.729 34.3873 49.1233 32.1724 49.44 27.4437C49.7573 22.715 45.941 19.0381 40.8258 17.0804C43.2311 20.061 43.2631 23.1262 42.2538 25.5693C41.2445 28.0125 40.2394 29.1973 36.8466 30.0849C33.4538 30.972 28.9576 31.0287 28.0683 29.9678C27.6008 29.1477 25.1364 15.6246 29.0619 7.77515ZM32.0053 6.14234C34.1107 4.0953 36.2168 2.04765 38.3222 0C52.1475 9.71833 55.0282 18.2736 56.8229 24.4794C58.6177 30.6851 58.8662 45.669 49.3326 52.5722C39.7984 59.4754 28.0454 57.9585 23.3417 57.6307C25.3874 55.6434 27.4325 53.6561 29.4782 51.6689C35.33 51.4346 42.0855 50.5505 48.0688 44.442C54.0521 38.3335 57.1463 28.5439 53.3565 20.9559C49.5667 13.3692 38.864 7.94906 32.0053 6.14234ZM38.5466 41.2344L41.8864 37.8921L45.2255 41.2344L41.8864 44.5767L38.5466 41.2344ZM30.876 41.2344L34.2151 37.8921L37.5549 41.2344L34.2151 44.5767L30.876 41.2344Z" fill="#40AF3B"/>
<path fill-rule="evenodd" clip-rule="evenodd" d="M64.5039 4.49811V6.19734H66.368V22.7228H73.1392C74.8374 22.7228 76.8162 22.4656 78.1929 21.3799C79.4133 20.4174 79.8633 19.0569 79.8633 17.5316C79.8633 17.0479 79.7939 16.5739 79.6492 16.1125C79.508 15.6651 79.2926 15.2526 79.0103 14.8789C78.7165 14.49 78.3545 14.1669 77.9479 13.9006C77.4918 13.6017 76.9712 13.4031 76.4434 13.2744L75.7019 13.0945L76.3897 12.763C77.1359 12.4031 77.8369 11.9097 78.3129 11.2201C78.7654 10.565 78.9361 9.8005 78.9361 9.01248C78.9361 8.3579 78.8088 7.72326 78.5072 7.13934C78.2158 6.57414 77.8031 6.10555 77.2916 5.72815C76.7118 5.30002 76.0428 5.01138 75.3514 4.81936C74.5123 4.58687 73.6345 4.4975 72.7652 4.4975H64.5039V4.49811ZM68.3058 12.3638V6.18707H72.5148C73.1887 6.18707 73.8987 6.22149 74.5593 6.364C75.0486 6.46967 75.5559 6.63875 75.9686 6.9286C76.3287 7.1804 76.6093 7.50648 76.7824 7.91106C76.9622 8.33013 77.0267 8.78241 77.0267 9.2359C77.0267 10.1942 76.7552 11.1018 75.9318 11.6591C75.0588 12.2503 73.7763 12.3644 72.7513 12.3644H68.3058V12.3638ZM68.3058 21.0339V14.0238H72.7652C73.5434 14.0238 74.3614 14.0649 75.1246 14.2237C75.6772 14.3384 76.2394 14.5316 76.7028 14.8601C77.11 15.1482 77.4122 15.5232 77.586 15.9918C77.7675 16.4797 77.8303 17.0135 77.8303 17.5316C77.8303 20.3177 75.527 21.0345 73.1247 21.0345H68.3058V21.0339ZM124.738 22.7228L119.214 14.4405L124.056 9.68818H121.807L117.634 14.2829L115.94 14.2804V14.0075C115.94 10.3862 115.95 6.76495 115.95 3.14368H112.488V4.84291H114.088V22.7228H115.94V15.775L118.08 15.8166L122.53 22.7222H124.738V22.7228ZM99.988 9.68818H98.1354V9.69543H96.4058V11.3947H98.1354V22.7228H99.988V13.1537L100.055 13.0764C101.043 11.9327 102.382 10.818 103.975 10.818C104.766 10.818 105.588 11.0052 106.108 11.6483C106.655 12.3246 106.756 13.3892 106.756 14.2255V22.7228H108.651V14.1029C108.651 11.1121 107.415 9.35667 104.307 9.35667C103.603 9.35667 102.934 9.51609 102.305 9.83009C101.594 10.1845 100.986 10.7171 100.468 11.3137L99.9892 11.8651V9.68818H99.988ZM91.3479 22.7228H93.215V22.7168H94.5217V21.0176H93.215V14.2261C93.215 13.4272 93.1396 12.5377 92.8458 11.7878C92.6238 11.2214 92.2993 10.7057 91.8251 10.318C91.3521 9.93153 90.7917 9.69784 90.1987 9.56802C89.4681 9.4086 88.7043 9.35667 87.9575 9.35667C86.7588 9.35667 84.7861 9.565 83.8751 10.4599C83.5584 10.7709 83.2507 11.0692 83.5264 11.4913C83.7726 11.8681 84.1532 11.8143 84.4941 11.5812C85.4105 10.9551 86.731 10.7093 87.8199 10.7093C88.4455 10.7093 89.1894 10.7516 89.7824 10.9671C90.2258 11.129 90.624 11.3838 90.887 11.7847C91.1355 12.1646 91.2598 12.6048 91.2954 13.0546C91.3364 13.5776 91.3479 14.1047 91.3479 14.6289V14.9018H89.8831C86.8197 14.9018 81.967 15.3378 81.967 19.4017C81.967 19.9222 82.0671 20.4228 82.2945 20.8926C82.5111 21.3394 82.8121 21.7217 83.1958 22.0363C83.6055 22.3714 84.073 22.6148 84.5725 22.7844C85.1305 22.9734 85.7181 23.0544 86.3063 23.0544C88.0293 23.0544 89.6014 22.5815 90.8924 21.4191L91.3479 21.0097V22.7228ZM91.2966 19.5901C91.0595 19.918 90.7808 20.2114 90.4671 20.4663C90.1468 20.7259 89.8011 20.9463 89.4295 21.1251C89.0518 21.3062 88.6549 21.4463 88.2477 21.5423C87.8392 21.6383 87.4224 21.6866 87.0025 21.6866C86.2231 21.6866 85.4195 21.5417 84.7722 21.0828C84.1556 20.645 83.8721 20.0122 83.8721 19.264C83.8721 16.4567 87.2993 16.1306 89.4011 16.1306H91.3485V19.5182L91.2966 19.5901Z" fill="#AF4284"/>
<path fill-rule="evenodd" clip-rule="evenodd" d="M82.5411 37.1209L77.2998 51.7739H74.5398L69.3287 37.1282V51.7739H66.2773V32.4568H70.7247L75.9159 47.5452L81.1602 32.4568H85.6075V51.7739H82.5405V37.1209H82.5411ZM181.87 48.9763H183.176V51.7685H181.87V51.7745H178.911V50.7069C177.61 51.6894 176.076 52.106 174.415 52.106C173.767 52.106 173.121 52.0161 172.507 51.8071C171.945 51.6163 171.42 51.3416 170.96 50.9648C170.514 50.5994 170.164 50.155 169.912 49.6363C169.649 49.0922 169.53 48.5107 169.53 47.9069C169.53 43.4565 174.57 42.8605 177.992 42.8605H178.91C178.905 42.4408 178.892 42.0194 178.86 41.6015C178.831 41.2452 178.737 40.8908 178.539 40.5888C178.343 40.2899 178.034 40.1052 177.704 39.9856C177.179 39.7942 176.483 39.7604 175.929 39.7604C174.955 39.7604 173.732 39.9765 172.911 40.5375C172.31 40.9481 171.594 40.9318 171.178 40.2948C170.732 39.6124 171.086 39.081 171.601 38.5744C172.634 37.5587 174.697 37.3154 176.066 37.3154C176.852 37.3154 177.654 37.3715 178.423 37.5394C179.101 37.6873 179.738 37.9585 180.278 38.3993C180.826 38.8473 181.206 39.4379 181.462 40.0931C181.782 40.9107 181.869 41.8593 181.869 42.7307V48.9763H181.87ZM158.839 48.9763H160.146V51.7685H158.839V51.7745H155.881V50.7069C154.58 51.6894 153.046 52.106 151.385 52.106C150.737 52.106 150.091 52.0161 149.476 51.8071C148.915 51.6163 148.39 51.3416 147.93 50.9648C147.484 50.5994 147.134 50.155 146.882 49.6363C146.619 49.0922 146.5 48.5107 146.5 47.9069C146.5 43.4565 151.541 42.8605 154.963 42.8605H155.881C155.877 42.4408 155.863 42.0194 155.831 41.6015C155.802 41.2452 155.708 40.8908 155.51 40.5888C155.314 40.2899 155.005 40.1052 154.675 39.9856C154.15 39.7942 153.454 39.7604 152.9 39.7604C151.926 39.7604 150.703 39.9765 149.882 40.5375C149.281 40.9481 148.565 40.9318 148.15 40.2948C147.704 39.6124 148.058 39.081 148.573 38.5744C149.606 37.5587 151.669 37.3154 153.038 37.3154C153.824 37.3154 154.625 37.3715 155.395 37.5394C156.073 37.6873 156.71 37.9585 157.25 38.3993C157.799 38.8473 158.177 39.4379 158.434 40.0931C158.754 40.9107 158.84 41.8593 158.84 42.7307V48.9763H158.839ZM125.465 38.2103C126.482 37.1529 127.733 36.4283 129.265 36.4283C131.35 36.4283 132.899 37.2477 133.645 39.1106C133.739 38.9874 133.836 38.8667 133.941 38.7495C135.076 37.4832 136.447 36.4283 138.218 36.4283C141.811 36.4283 143.094 38.8328 143.094 42.1607V52.1054H140.108V42.2995C140.108 41.8002 140.077 41.2772 139.968 40.7881C139.893 40.4548 139.772 40.1124 139.566 39.8358C139.394 39.6052 139.176 39.4427 138.908 39.3413C138.576 39.2157 138.213 39.1734 137.859 39.1734C136.372 39.1734 135.242 40.2163 134.419 41.3569V52.1054H131.156V42.2995C131.156 41.8002 131.125 41.2772 131.016 40.7881C130.941 40.4548 130.82 40.1124 130.614 39.8358C130.442 39.6052 130.224 39.4427 129.956 39.3413C129.624 39.2157 129.261 39.1734 128.907 39.1734C127.421 39.1734 126.289 40.2163 125.467 41.3569V52.1054H122.508V39.8105H120.431V36.822H122.508V36.7888H125.467V38.2103H125.465ZM117.11 48.9763H118.417V51.7685H117.11V51.7745H114.152V50.7069C112.85 51.6894 111.317 52.106 109.656 52.106C109.008 52.106 108.361 52.0161 107.747 51.8071C107.185 51.6163 106.66 51.3416 106.2 50.9648C105.755 50.5994 105.405 50.155 105.153 49.6363C104.889 49.0922 104.771 48.5107 104.771 47.9069C104.771 43.4565 109.811 42.8605 113.233 42.8605H114.151C114.147 42.4408 114.134 42.0194 114.101 41.6015C114.073 41.2452 113.978 40.8908 113.781 40.5888C113.584 40.2899 113.276 40.1052 112.946 39.9856C112.42 39.7942 111.725 39.7604 111.17 39.7604C110.196 39.7604 108.973 39.9765 108.152 40.5375C107.551 40.9481 106.836 40.9318 106.419 40.2948C105.974 39.6124 106.327 39.081 106.842 38.5744C107.876 37.5587 109.938 37.3154 111.307 37.3154C112.094 37.3154 112.895 37.3715 113.665 37.5394C114.342 37.6873 114.98 37.9585 115.52 38.3993C116.068 38.8473 116.447 39.4379 116.703 40.0931C117.024 40.9107 117.11 41.8593 117.11 42.7307V48.9763ZM187.246 39.4131H184.922V36.9965H187.246V32.9604H190.205V36.9965H193.001V39.4131H190.205V47.6321C190.205 47.9787 190.214 48.3761 190.289 48.7154C190.327 48.8936 190.391 49.1134 190.503 49.2607C190.576 49.3561 190.663 49.4292 190.779 49.463C190.931 49.5071 191.09 49.5234 191.247 49.5234C191.448 49.5234 191.647 49.5143 191.846 49.4962C192.036 49.4787 192.224 49.4557 192.412 49.4274L192.727 49.3785V51.7323L192.515 51.7818C191.931 51.9182 191.322 51.969 190.722 51.969C190.13 51.969 189.457 51.9122 188.905 51.6827C188.457 51.4962 188.082 51.2081 187.819 50.7957C187.548 50.37 187.409 49.873 187.348 49.3748C187.274 48.7607 187.247 48.1369 187.247 47.5186V39.4131H187.246ZM162.837 34.0383H160.95V31.2461H165.781V48.9817H168.127V51.7739H162.837V34.0383ZM98.2058 50.4606C97.1627 51.4611 95.9091 52.1054 94.4057 52.1054C90.996 52.1054 89.53 50.097 89.53 46.8127V37.6469H92.5169V46.6853C92.5169 47.1418 92.547 47.6207 92.6556 48.0651C92.7304 48.3724 92.8511 48.681 93.052 48.9286C93.2269 49.1448 93.4483 49.2909 93.7101 49.3821C94.0462 49.4992 94.4118 49.5379 94.7653 49.5379C96.2174 49.5379 97.3461 48.6315 98.2058 47.5385V37.6475H101.164V48.9521H103.241V51.7437H101.164V51.7745H98.2058V50.4606ZM178.911 47.8453V45.1823H177.51C175.777 45.1823 172.527 45.3665 172.527 47.7692C172.527 48.3392 172.726 48.8078 173.197 49.1424C173.747 49.533 174.451 49.646 175.111 49.646C175.489 49.646 175.864 49.6025 176.232 49.5155C176.601 49.4292 176.961 49.3018 177.302 49.1375C177.636 48.9775 177.946 48.7794 178.232 48.547C178.486 48.3404 178.714 48.1062 178.911 47.8453ZM155.881 47.8453V45.1823H154.479C152.746 45.1823 149.496 45.3665 149.496 47.7692C149.496 48.3392 149.695 48.8078 150.166 49.1424C150.716 49.533 151.42 49.646 152.08 49.646C152.458 49.646 152.832 49.6025 153.2 49.5155C153.57 49.4292 153.929 49.3018 154.271 49.1375C154.604 48.9775 154.914 48.7794 155.201 48.547C155.456 48.3404 155.684 48.1062 155.881 47.8453ZM114.151 47.8453V45.1823H112.749C111.016 45.1823 107.766 45.3665 107.766 47.7692C107.766 48.3392 107.965 48.8078 108.436 49.1424C108.986 49.533 109.69 49.646 110.35 49.646C110.729 49.646 111.103 49.6025 111.471 49.5155C111.84 49.4292 112.199 49.3018 112.541 49.1375C112.874 48.9775 113.185 48.7794 113.472 48.547C113.726 48.3404 113.954 48.1062 114.151 47.8453Z" fill="#AF4284"/>
</svg>
