<svg width="193" height="61" viewBox="0 0 193 61" fill="none" xmlns="http://www.w3.org/2000/svg">
<path fill-rule="evenodd" clip-rule="evenodd" d="M5.2619 0H53.8622C56.7565 0 59.1241 2.4221 59.1241 5.38258V55.1933C59.1241 58.1538 56.7565 60.5755 53.8622 60.5755H5.2619C2.36681 60.5755 0 58.1538 0 55.1933V5.38258C0 2.4221 2.36681 0 5.2619 0Z" fill="#E12F2E"/>
<path fill-rule="evenodd" clip-rule="evenodd" d="M2.6582 29.7855C4.61718 -7.20843 56.0018 -5.41146 56.4666 29.7855H55.4689C53.7384 2.35955 14.6921 -1.38413 11.3702 29.7855H2.6582Z" fill="white"/>
<path fill-rule="evenodd" clip-rule="evenodd" d="M12.4336 29.7411C13.9522 1.06569 53.9935 2.45818 54.3533 29.7411H53.3696C52.028 8.48174 23.4167 7.12649 20.7625 29.7411H12.4336Z" fill="white"/>
<path fill-rule="evenodd" clip-rule="evenodd" d="M22.1641 29.655C23.2648 8.87425 52.1289 9.88366 52.3899 29.655H51.4321C50.46 14.2485 29.943 14.487 29.5705 29.655H22.1641Z" fill="white"/>
<path fill-rule="evenodd" clip-rule="evenodd" d="M56.4662 30.7905C54.5068 67.7844 3.12258 65.9874 2.6582 30.7905H3.6559C5.38636 58.2168 44.4327 61.9605 47.7546 30.7905H56.4662Z" fill="white"/>
<path fill-rule="evenodd" clip-rule="evenodd" d="M46.6912 30.8348C45.1726 59.5102 5.13129 58.1177 4.77148 30.8348H5.75523C7.09685 52.0942 35.7081 53.4494 38.3623 30.8348H46.6912Z" fill="white"/>
<path fill-rule="evenodd" clip-rule="evenodd" d="M36.9583 30.9212C35.8576 51.7016 6.99346 50.6922 6.73242 30.9212H7.69022C8.66235 46.3273 29.1793 46.0888 29.5519 30.9212H36.9583Z" fill="white"/>
<path fill-rule="evenodd" clip-rule="evenodd" d="M173.239 45.7205C173.239 47.8973 172.979 53.4431 173.428 54.8297C173.577 55.7357 174.175 56.5593 175.705 56.858V51.8145C176.798 51.0654 177.682 50.7512 178.992 51.3942C178.992 55.1609 176.962 57.6982 181.868 57.6982C184.209 57.6982 188.762 55.1244 190.347 53.5529C191.229 52.6785 191.935 52.3632 191.935 50.7639H191.524C191.524 52.675 190.13 53.3706 188.102 54.4086C187.052 54.9461 179.879 57.9922 180.603 54.1142C181.277 50.5068 182.845 47.3811 175.705 49.0826V42.989C174.172 43.1193 173.239 44.9266 173.239 45.7205Z" fill="#00A651"/>
<path fill-rule="evenodd" clip-rule="evenodd" d="M125.783 50.7639C125.783 53.8923 127.22 53.9157 132.357 53.9157C132.01 58.1775 118.897 55.5974 115.951 53.6752C114.259 52.5707 114.91 51.5946 115.1 50.7639C113.739 51.1355 114.032 53.0505 115.71 54.3424C120.707 58.1894 134.822 61.0552 134.822 53.9157C134.822 49.7561 128.659 53.2953 128.659 50.9738C128.659 50.3222 130.09 49.7133 130.713 49.7133C131.574 49.7133 132.477 49.9339 133.16 50.1526C133.916 50.3951 134.511 50.8019 135.233 50.9738C135.233 48.1354 135.02 48.032 130.302 48.032C128.512 48.032 125.783 48.9871 125.783 50.7639Z" fill="#00A651"/>
<path fill-rule="evenodd" clip-rule="evenodd" d="M135.85 50.3436C135.85 55.0373 134.844 57.068 140.78 57.068C140.195 57.9625 140.087 58.3095 139.011 58.8309C138.339 59.1565 136.92 59.5701 136.055 59.5899V60.0098C138.518 60.0098 140.904 60.1929 142.488 58.3939C143.493 57.2514 142.964 53.1813 143.039 50.3278C143.081 48.7317 143.78 47.8684 140.78 49.9233V54.3361C139.518 55.0191 139.833 55.376 138.315 54.3361V48.6627C137.658 48.8192 135.85 49.6404 135.85 50.3436Z" fill="#00A651"/>
<path fill-rule="evenodd" clip-rule="evenodd" d="M167.283 54.9668C166.576 54.9668 166.823 53.1567 167.567 52.3153C168.052 51.7666 168.604 51.6046 169.543 51.6046V54.3361C168.545 54.4213 168.265 54.9668 167.283 54.9668ZM163.996 56.0174C165.47 57.0268 165.347 56.858 167.283 56.858C168.329 56.858 168.431 56.5316 169.26 56.347C170.434 56.0851 171.297 57.2795 173.241 56.2273C173.05 55.6874 173.014 55.8783 172.389 55.418C172.071 55.1843 171.597 54.8273 171.597 54.3361V48.6627C169.383 48.6627 167.13 49.2783 165.924 50.8448C164.857 52.2297 164.174 53.8274 163.996 56.0174Z" fill="#00A651"/>
<path fill-rule="evenodd" clip-rule="evenodd" d="M146.943 54.9668C146.095 54.9668 146.399 51.6046 149.203 51.6046V54.3361C148.206 54.4213 147.925 54.9668 146.943 54.9668ZM143.656 56.0174C144.945 56.9 146.233 57.1155 147.86 56.7431C148.492 56.5985 148.559 56.4678 148.94 56.3664C150.025 56.0784 150.95 57.2835 152.901 56.2273C152.621 55.4354 151.257 55.3051 151.257 54.3361V48.6627C146.613 48.6627 144.028 51.4457 143.656 56.0174Z" fill="#00A651"/>
<path fill-rule="evenodd" clip-rule="evenodd" d="M152.695 49.293C152.695 52.4515 152.083 56.6132 154.955 56.858V50.7639C152.965 49.6868 153.668 49.5584 152.695 49.293ZM156.599 50.9739C158.21 50.9739 160.091 50.6673 160.091 48.242C160.091 46.7647 158.783 46.6265 157.626 46.3511C157.297 46.8543 156.599 47.3265 156.599 48.032C156.599 48.6429 157.031 48.7986 157.215 49.503C155.982 49.503 156.085 49.8009 154.932 49.5414C154.046 49.3417 153.572 49.0256 152.901 48.6627C153.217 49.8718 155.319 50.9739 156.599 50.9739ZM157.852 48.9781C157.461 48.5157 158.314 47.7515 158.847 48.1346C159.413 48.6354 158.125 49.4534 157.852 48.9781Z" fill="#00A651"/>
<path fill-rule="evenodd" clip-rule="evenodd" d="M159.475 51.1843C159.973 51.0654 160.299 50.9644 160.707 50.7639C160.707 52.4757 159.618 56.5902 162.762 56.858C162.762 55.2468 162.759 53.6357 162.762 52.0245C162.765 50.0231 163.197 48.6627 161.118 48.6627C160.377 48.6627 159.541 50.363 159.475 51.1843Z" fill="#00A651"/>
<path d="M133.848 58.3103L132.533 59.6553L133.848 61L135.163 59.655L133.848 58.3103Z" fill="#00A651"/>
<path d="M130.912 58.3103L129.598 59.6553L130.913 61L132.227 59.6549L130.912 58.3103Z" fill="#00A651"/>
<path d="M162.043 45.7398L160.729 47.0847L162.043 48.4295L163.358 47.0847L162.043 45.7398Z" fill="#00A651"/>
<path fill-rule="evenodd" clip-rule="evenodd" d="M67.0913 7.74483C67.0913 3.92509 70.5968 4.39889 70.5968 7.1708C70.5968 8.17109 70.5763 10.3262 69.0542 10.3262C68.2897 10.3262 67.8373 10.1123 67.5464 9.57349C67.3144 9.14366 67.0913 8.35927 67.0913 7.74483ZM64.9883 12.1905C67.3198 12.1905 67.0913 12.3759 67.0913 11.1866C67.5073 11.4715 67.668 11.7928 68.0712 12.0491C69.4473 12.9234 71.1197 12.2618 71.8827 11.2112C73.6716 8.74829 73.1108 2.86854 69.4748 2.86854C68.2556 2.86854 67.6591 3.4913 67.0913 4.15922V0.000366211H64.9883V12.1905Z" fill="black"/>
<path fill-rule="evenodd" clip-rule="evenodd" d="M92.1895 12.1905H94.2925C94.2925 9.90665 93.9854 9.24824 95.1337 8.46148L97.0966 12.1905H99.6206C99.5641 11.4988 98.5617 10.0057 98.2167 9.32391C97.7163 8.3355 97.1744 7.41721 96.676 6.45376C97.0025 6.23032 99.3546 3.63708 99.4804 3.15536H96.8162L95.0152 5.47208C94.7879 5.76603 94.5822 5.96846 94.2925 6.16733V0.000366211H92.1895V12.1905Z" fill="black"/>
<path fill-rule="evenodd" clip-rule="evenodd" d="M76.0655 9.75254C76.0655 8.2931 76.7998 8.4579 77.9885 8.13424C78.3948 8.02332 78.3409 7.933 78.8696 7.88823C78.8696 9.09532 78.901 9.79691 78.1182 10.2755C77.4273 10.6982 76.0655 10.6419 76.0655 9.75254ZM74.1027 6.02352C78.234 6.02352 75.2015 5.53229 76.9424 4.90279C77.5764 4.67382 78.1078 4.8715 78.7294 5.01966C78.803 5.34134 78.8696 5.34966 78.8696 5.7371C78.8696 7.30033 73.8223 5.69154 73.8223 9.60914C73.8223 10.2489 74.1178 11.212 74.4141 11.5848C75.2506 12.637 76.7007 12.6366 77.8374 12.1386C78.4226 11.8823 78.5183 11.523 79.0098 11.1866C79.0373 12.4559 79.3123 12.1905 81.5339 12.1905C81.5013 10.7077 81.1086 12.6746 81.1129 9.32232C81.1183 5.23755 81.8797 2.86853 77.3274 2.86853C75.3893 2.86853 74.1453 4.06492 74.1027 6.02352Z" fill="black"/>
<path fill-rule="evenodd" clip-rule="evenodd" d="M85.1788 4.01582V3.15537H82.9355V12.1905H85.1788V6.59757C85.1788 5.71731 85.7931 5.01968 86.8613 5.01968C88.4736 5.01968 87.991 7.72266 87.9829 10.3262C87.9759 12.473 87.5634 12.1905 90.2265 12.1905V5.44991C90.2265 3.07059 88.3508 3.01196 87.0015 3.01196C86.1982 3.01196 85.6707 3.67909 85.1788 4.01582Z" fill="black"/>
<path fill-rule="evenodd" clip-rule="evenodd" d="M140.422 23.065V21.3441H136.355V38.554H140.562V29.3754C140.562 26.1353 141.194 24.9294 143.646 24.9294C144.656 24.9294 145.469 25.972 145.469 27.0805V38.554H149.816V27.5107C149.816 24.2919 154.723 23.916 154.723 27.2243V38.554H158.649C158.972 38.554 159.07 38.4541 159.07 38.1237V28.2282C159.07 26.199 158.963 24.4183 158.149 23.1467C156.164 20.0487 151.878 20.4167 149.988 22.3805C149.637 22.7446 149.673 22.9224 149.255 23.2085C148.002 22.2692 148.415 20.9139 144.347 20.9139C142.262 20.9139 141.184 22.5429 140.422 23.065Z" fill="black"/>
<path fill-rule="evenodd" clip-rule="evenodd" d="M168.463 35.5424C167.356 35.5424 166.246 35.5884 165.938 34.0992C165.755 33.2166 165.959 32.3094 166.658 31.832C167.727 31.1023 169.016 31.13 170.303 30.6847C170.796 30.5148 170.997 30.3666 171.547 30.2359C171.547 31.8312 171.671 32.8188 171.073 33.9095C170.623 34.7299 169.628 35.5424 168.463 35.5424ZM162.294 26.077V26.7941H166.36C166.36 23.4691 170.112 24.3649 170.765 24.7262C171.376 25.0645 172.847 27.2651 169.106 27.8823C165.354 28.5015 161.732 28.6719 161.732 33.8211C161.732 36.66 163.234 39.1276 165.939 39.1276C169.183 39.1276 169.811 38.7541 171.688 36.5459C171.688 39.1395 172.041 38.554 176.595 38.554C176.595 36.8545 175.825 37.7577 175.749 35.977L175.754 26.9375C175.755 24.6945 175.571 23.384 174.389 22.3096C172.257 20.3712 166.568 20.063 164.015 22.2446C163.129 23.0013 162.294 24.4766 162.294 26.077Z" fill="black"/>
<path fill-rule="evenodd" clip-rule="evenodd" d="M113.782 35.5423C112.71 35.5423 111.398 35.4207 111.398 33.5342C111.398 31.2472 113.828 31.3102 115.45 30.7944C115.913 30.647 116.664 30.277 117.147 30.2358C117.147 31.7741 117.161 33.0188 116.587 33.9648C116.068 34.8169 115.15 35.5423 113.782 35.5423ZM107.893 25.7897V26.794H111.819C111.885 25.9854 112.054 25.3789 112.552 24.9625C113.671 24.0284 117.006 23.9888 117.006 25.9331C117.006 27.145 116.559 27.6204 114.461 27.9187C111.411 28.3529 107.332 28.9237 107.332 32.9605V34.538C107.332 36.951 109.16 39.1275 111.539 39.1275C112.978 39.1275 114.099 39.1953 115.385 38.3289C116.859 37.3361 116.62 37.0845 117.147 36.6896C117.199 36.7997 117.553 38.3701 117.568 38.5539H122.194C122.194 36.8076 121.672 38.2473 121.345 36.4107C121.12 35.1434 121.213 28.8001 121.213 27.2242C121.213 24.459 121.379 23.8525 119.919 22.3804C118.228 20.6757 115.827 20.7704 113.501 20.7704C110.667 20.7704 107.893 22.937 107.893 25.7897Z" fill="black"/>
<path fill-rule="evenodd" clip-rule="evenodd" d="M65.4089 26.077C65.4089 28.9781 66.4798 30.1535 69.2804 31.1518C70.3633 31.5376 71.3617 31.7955 72.4477 32.0713C73.2239 32.2682 75.0833 32.6497 75.0833 33.8211C75.0833 34.4573 74.7158 34.9054 74.2758 35.1466C73.2157 35.7278 71.1038 35.5998 70.2126 34.9311C69.4605 34.3662 69.4225 33.9613 69.1944 32.9606H64.9883V33.8211C64.9883 36.9361 68.0642 39.1276 71.1572 39.1276C73.624 39.1276 75.4547 39.1458 77.4296 37.6555C79.0071 36.4642 79.43 35.0682 79.43 32.8172C79.43 29.3738 76.2805 28.6406 73.947 27.9564C73.2332 27.7468 69.615 27.0837 69.615 25.9332C69.615 23.7983 73.0263 24.1782 73.969 24.9218C74.4307 25.2867 74.6627 25.8148 74.6627 26.6503H78.8688C78.8688 22.962 76.0667 20.7705 72.8401 20.7705H71.1572C68.1525 20.7705 65.4089 23.0286 65.4089 26.077Z" fill="black"/>
<path fill-rule="evenodd" clip-rule="evenodd" d="M178.979 25.9332C178.979 29.1258 179.858 29.9843 182.943 31.2009C183.912 31.5828 185.095 31.8403 186.13 32.0994C190.811 33.2704 188.138 35.876 185.508 35.4679C183.922 35.2219 182.922 34.8872 182.765 32.9606H178.418C178.418 34.9177 179.162 36.5035 180.205 37.4432C183.297 40.2305 193 40.2757 193 33.1041C193 30.2735 191.264 29.1833 189.128 28.4599C187.345 27.8566 183.185 27.2481 183.185 25.7898C183.185 23.792 188.233 23.6145 188.233 26.6503H192.439C192.439 25.1251 191.817 23.3004 190.702 22.4035C188.587 20.7028 187.255 20.7705 184.728 20.7705C181.786 20.7705 178.979 22.9553 178.979 25.9332Z" fill="black"/>
<path fill-rule="evenodd" clip-rule="evenodd" d="M94.4327 23.2085V21.3442H90.2266V38.554H94.5729V28.2282C94.5729 26.028 95.8126 24.786 97.9381 24.786C99.6005 24.786 100.181 26.085 100.181 27.798V38.554H104.528V26.5073C104.528 24.9678 104.054 23.3971 103.368 22.5303C101.656 20.3669 97.4099 20.3554 95.3068 22.3817C94.9637 22.7121 94.8146 22.947 94.4327 23.2085Z" fill="black"/>
<path fill-rule="evenodd" clip-rule="evenodd" d="M128.924 23.9255V21.3441H124.857V38.554H129.204V29.3754C129.204 25.3735 131.92 25.6468 134.112 25.6468V20.9139C132.937 20.887 132.026 20.7788 130.882 21.6258C129.674 22.5192 129.625 23.0999 128.924 23.9255Z" fill="black"/>
<path d="M86.5807 21.3441H82.2344V38.5539H86.5807V21.3441Z" fill="black"/>
<path fill-rule="evenodd" clip-rule="evenodd" d="M82.2344 19.4798H86.5807V15.6073C86.5807 15.277 86.4831 15.1771 86.1601 15.1771H82.2344V19.4798Z" fill="black"/>
</svg>
