<svg width="193" height="47" viewBox="0 0 193 47" fill="none" xmlns="http://www.w3.org/2000/svg">
<path fill-rule="evenodd" clip-rule="evenodd" d="M0 4.28026C0 1.91588 1.87891 0 4.19866 0H41.9126C44.2315 0 46.1121 1.91588 46.1121 4.28026V42.7197C46.1121 45.0841 44.2315 47 41.9126 47H4.19866C1.87891 46.9992 0 45.0833 0 42.7197V4.28026Z" fill="#ED1C24"/>
<path d="M36.4543 23.9332C36.1997 32.9181 28.9728 40.1232 20.0956 40.1232C11.2176 40.1232 3.99151 32.919 3.73692 23.9332H4.54705C4.61618 30.9724 10.2358 36.6562 17.1585 36.6562C24.0811 36.6562 29.7008 30.9724 29.7707 23.9332H36.4543ZM44.052 23.9332C43.8259 35.5544 34.5119 44.9034 23.0563 44.9034C11.6007 44.9034 2.28748 35.5544 2.06136 23.9332H2.92029C3.19277 33.3766 10.7889 40.9464 20.12 40.9464C29.4511 40.9464 37.0472 33.3766 37.3205 23.9332H44.052ZM28.9191 23.9332C28.8687 30.5148 23.6175 35.8338 17.1487 35.8338C10.6791 35.8338 5.42956 30.5148 5.37832 23.9332H6.24701C6.24375 24.0318 6.24213 24.1313 6.24213 24.2308C6.24213 28.9662 10.0081 32.8046 14.6541 32.8046C19.3001 32.8046 23.0669 28.9662 23.0669 24.2308C23.0669 24.1313 23.0652 24.0318 23.0612 23.9332H28.9191ZM17.1943 23.0668C17.2447 16.4852 22.4951 11.1661 28.9647 11.1661C35.4335 11.1661 40.6838 16.4852 40.7351 23.0668H39.8664C39.8696 22.9682 39.8713 22.8687 39.8713 22.7692C39.8713 18.0338 36.1045 14.1954 31.4593 14.1954C26.8125 14.1954 23.0465 18.0338 23.0465 22.7692C23.0465 22.8687 23.0482 22.9682 23.0514 23.0668H17.1943ZM2.06055 23.0668C2.28667 11.4455 11.6007 2.09576 23.0563 2.09576C34.5127 2.09576 43.8259 11.4455 44.052 23.066H43.1931C42.9198 13.6234 35.3245 6.05354 25.9934 6.05354C16.6615 6.05354 9.06536 13.6234 8.79288 23.0668H2.06055ZM9.65832 23.0668C9.9129 14.0818 17.1398 6.87759 26.017 6.87759C34.8942 6.87759 42.1211 14.0818 42.3757 23.0668H41.5655C41.4956 16.0276 35.8759 10.3438 28.9533 10.3438C22.0306 10.3438 16.411 16.0276 16.3418 23.0668H9.65832Z" fill="white"/>
<path fill-rule="evenodd" clip-rule="evenodd" d="M55.4686 8.04736C55.4686 9.01732 55.6207 9.73526 55.9241 10.2003C56.3495 10.8594 56.9148 11.1885 57.62 11.1885C58.1625 11.1885 58.6229 10.9564 59.0019 10.4913C59.3867 10.0213 59.5786 9.28261 59.5786 8.27617C59.5786 7.2059 59.3867 6.4349 59.0019 5.96402C58.6172 5.48733 58.1243 5.2494 57.5248 5.2494C56.9351 5.2494 56.4463 5.48152 56.0551 5.94661C55.6638 6.40589 55.4686 7.10559 55.4686 8.04736ZM65.0144 6.4233L62.785 6.0179C63.0363 5.11178 63.4666 4.44192 64.079 4.00586C64.6915 3.57062 65.6009 3.35341 66.8071 3.35258C67.9036 3.35258 68.7194 3.48523 69.2554 3.74969C69.7914 4.00834 70.168 4.34078 70.3835 4.74701C70.6048 5.14743 70.7154 5.88526 70.7162 6.96134L70.6902 9.85547C70.6902 10.6787 70.7276 11.288 70.8041 11.6818C70.8854 12.0698 71.0334 12.4885 71.2498 12.9353H68.8194C68.7552 12.7703 68.6763 12.5266 68.5835 12.2024C68.5421 12.0557 68.5136 11.9587 68.4957 11.9115C68.076 12.3235 67.6278 12.6327 67.1496 12.8383C66.6713 13.0439 66.1613 13.1467 65.6196 13.1467C64.6631 13.1467 63.9082 12.8856 63.3551 12.3616C62.8069 11.8385 62.5328 11.1769 62.5328 10.3761C62.5328 9.84635 62.6573 9.37629 62.9086 8.96426C63.1599 8.54726 63.5089 8.22892 63.9579 8.01171C64.4134 7.7887 65.0657 7.59471 65.9165 7.42974C67.065 7.2117 67.8604 7.00942 68.3037 6.82123V6.57335C68.3037 6.09666 68.1874 5.75925 67.954 5.55862C67.7205 5.35302 67.2805 5.25023 66.6339 5.25023C66.1963 5.25023 65.8555 5.33893 65.6106 5.51468C65.3642 5.68546 65.1657 5.98889 65.0144 6.4233ZM68.3021 8.43535C67.9873 8.54146 67.4895 8.6683 66.8071 8.81504C66.1247 8.96261 65.679 9.10603 65.4691 9.24696C65.1478 9.47577 64.9876 9.76759 64.9876 10.1208C64.9876 10.4681 65.1161 10.7682 65.3723 11.0211C65.6285 11.2739 65.9555 11.3999 66.3524 11.3999C66.7949 11.3999 67.2171 11.2532 67.6205 10.9589C67.9174 10.7359 68.1126 10.4623 68.2061 10.139C68.2704 9.92676 68.3021 9.52386 68.3021 8.93027V8.43535ZM80.6891 12.9353H78.2318V8.15265C78.2318 7.14123 78.179 6.48796 78.074 6.19366C77.9691 5.89355 77.7967 5.66142 77.5584 5.49645C77.3249 5.33147 77.0419 5.2494 76.71 5.2494C76.2846 5.2494 75.9023 5.36712 75.5648 5.60256C75.2264 5.83801 74.993 6.14972 74.8653 6.5377C74.7433 6.92569 74.6814 7.64362 74.6814 8.69069V12.9353H72.2242V3.56481H74.5066V4.941C75.3167 3.88233 76.3367 3.35258 77.5673 3.35258C78.109 3.35258 78.6044 3.4529 79.0534 3.65269C79.5023 3.84668 79.8407 4.09705 80.0676 4.40296C80.3011 4.70887 80.4605 5.05623 80.5492 5.44422C80.6419 5.8322 80.6882 6.38848 80.6891 7.11222V12.9353ZM82.1987 12.9353V0H84.6559V6.86434L87.5328 3.56399H90.5586L87.3848 6.98786L90.7863 12.9353H88.1372L85.802 8.72633L84.6567 9.93505V12.9353H82.1987ZM53.0293 12.9353V0H55.4865V4.65913C56.2446 3.78865 57.1426 3.35341 58.1804 3.35341C59.3118 3.35341 60.2464 3.76793 60.9874 4.59695C61.7276 5.421 62.0968 6.60651 62.0977 8.15348C62.0977 9.7535 61.7186 10.9863 60.9614 11.8509C60.209 12.7156 59.2939 13.1475 58.2154 13.1475C57.6851 13.1475 57.1604 13.0157 56.6415 12.7513C56.1283 12.481 55.685 12.0831 55.3116 11.5599V12.937H53.0293V12.9353Z" fill="#414042"/>
<path fill-rule="evenodd" clip-rule="evenodd" d="M175.841 36.9546L180.719 36.1969C180.928 37.1611 181.347 37.8956 181.982 38.4005C182.616 38.8946 183.504 39.1416 184.646 39.1416C185.904 39.1416 186.849 38.907 187.483 38.4361C187.91 38.107 188.123 37.6659 188.124 37.1138C188.124 36.7383 188.007 36.4265 187.777 36.1795C187.535 35.9449 186.993 35.7277 186.151 35.527C182.23 34.6458 179.744 33.8408 178.695 33.1113C177.242 32.1007 176.515 30.6963 176.515 28.8973C176.515 27.2757 177.143 25.912 178.4 24.8069C179.657 23.7018 181.606 23.1497 184.248 23.1497C186.761 23.1497 188.629 23.5675 189.853 24.4015C191.075 25.2363 191.916 26.4708 192.378 28.1039L187.793 28.9678C187.597 28.2399 187.222 27.682 186.668 27.2932C186.127 26.9052 185.348 26.7112 184.333 26.7112C183.053 26.7112 182.136 26.8936 181.582 27.2575C181.213 27.5162 181.028 27.8519 181.028 28.2623C181.028 28.6155 181.189 28.9147 181.513 29.1618C181.952 29.4909 183.462 29.9552 186.045 30.5545C188.64 31.1539 190.451 31.8884 191.478 32.7581C192.493 33.6394 193 34.868 193.001 36.4431C193.001 38.1592 192.297 39.6349 190.89 40.8685C189.483 42.1029 187.4 42.7197 184.644 42.7197C182.141 42.7197 180.157 42.2024 178.693 41.1677C177.243 40.1339 176.291 38.7296 175.841 36.9546ZM169.759 33.3053C169.136 33.5167 168.15 33.7695 166.801 34.063C165.451 34.3573 164.569 34.645 164.154 34.9268C163.52 35.3853 163.202 35.9673 163.202 36.6719C163.202 37.3658 163.456 37.9652 163.964 38.4701C164.471 38.9758 165.117 39.2287 165.901 39.2287C166.778 39.2287 167.613 38.9352 168.41 38.3474C168.999 37.9014 169.384 37.3542 169.57 36.7076C169.696 36.2839 169.758 35.4798 169.759 34.2918V33.3053ZM163.254 29.2845L158.843 28.4737C159.338 26.6631 160.191 25.3234 161.403 24.4529C162.614 23.5841 164.413 23.1489 166.801 23.1489C168.968 23.1489 170.583 23.4133 171.644 23.9422C172.705 24.4595 173.449 25.1236 173.876 25.9344C174.314 26.7336 174.534 28.2084 174.534 30.3597L174.482 36.143C174.482 37.7886 174.556 39.0048 174.706 39.7924C174.867 40.5684 175.161 41.4032 175.589 42.2961H170.779C170.652 41.9678 170.496 41.4795 170.312 40.8328C170.231 40.5393 170.174 40.3445 170.139 40.2508C169.309 41.0741 168.421 41.6909 167.475 42.1021C166.529 42.5133 165.521 42.7189 164.448 42.7197C162.557 42.7197 161.062 42.1966 159.967 41.1495C158.883 40.1041 158.341 38.7818 158.341 37.1826C158.341 36.1248 158.588 35.1847 159.085 34.3614C159.58 33.5274 160.273 32.8932 161.161 32.458C162.06 32.0111 163.351 31.624 165.037 31.294C167.308 30.8596 168.881 30.4534 169.759 30.0779V29.5846C169.759 28.632 169.529 27.9564 169.067 27.5568C168.606 27.1456 167.735 26.9408 166.454 26.94C165.59 26.94 164.915 27.1166 164.431 27.4689C163.947 27.8096 163.554 28.4157 163.254 29.2845ZM129.527 23.5725H134.008V26.1284C135.611 24.142 137.519 23.1497 139.734 23.1489C140.91 23.1489 141.931 23.3959 142.796 23.8892C143.661 24.3833 144.371 25.1294 144.924 26.1284C145.731 25.1294 146.601 24.3841 147.537 23.8892C148.47 23.3959 149.468 23.1489 150.53 23.1489C151.879 23.1489 153.021 23.4307 153.955 23.9953C154.889 24.5482 155.587 25.3648 156.048 26.4459C156.382 27.2451 156.549 28.5384 156.549 30.3249V42.2969H151.687V31.5941C151.687 29.738 151.521 28.5384 151.186 27.9978C150.737 27.2923 150.045 26.94 149.111 26.94C148.429 26.94 147.79 27.1514 147.19 27.575C146.591 27.9978 146.157 28.6213 145.892 29.4436C145.627 30.2553 145.495 31.5419 145.495 33.3053V42.2969H140.634V32.036C140.634 30.2146 140.547 29.0391 140.374 28.5093C140.201 27.9804 139.93 27.5875 139.561 27.328C139.204 27.0701 138.713 26.9408 138.09 26.94C137.34 26.94 136.666 27.1464 136.066 27.5568C135.466 27.968 135.033 28.5616 134.768 29.3375C134.515 30.1135 134.388 31.4002 134.388 33.1983V42.2969H129.526V23.5725H129.527ZM121.996 42.2969H117.134V23.5725H121.649V26.2345C122.422 24.9769 123.114 24.1487 123.726 23.7482C124.349 23.3495 125.052 23.1497 125.837 23.1489C126.943 23.1489 128.01 23.4606 129.036 24.0832L127.532 28.4032C126.713 27.8627 125.952 27.5924 125.248 27.5924C124.567 27.5924 123.99 27.7856 123.518 28.1744C123.045 28.5508 122.67 29.2381 122.394 30.237C122.128 31.2368 121.996 33.3293 121.996 36.5136V42.2969ZM110.079 33.3053C109.457 33.5167 108.47 33.7695 107.121 34.063C105.771 34.3573 104.89 34.645 104.474 34.9268C103.84 35.3853 103.522 35.9673 103.522 36.6719C103.522 37.3658 103.776 37.9652 104.284 38.4701C104.791 38.9758 105.437 39.2287 106.221 39.2287C107.098 39.2287 107.933 38.9352 108.73 38.3474C109.318 37.9014 109.704 37.3542 109.889 36.7076C110.016 36.2839 110.078 35.4798 110.079 34.2918V33.3053ZM103.574 29.2845L99.1635 28.4737C99.6588 26.6631 100.512 25.3234 101.723 24.4529C102.933 23.5841 104.733 23.1489 107.121 23.1489C109.288 23.1489 110.903 23.4133 111.964 23.9422C113.026 24.4595 113.769 25.1236 114.196 25.9344C114.634 26.7336 114.854 28.2084 114.854 30.3597L114.802 36.143C114.802 37.7886 114.877 39.0048 115.027 39.7924C115.188 40.5684 115.482 41.4032 115.909 42.2961H111.1C110.973 41.9678 110.817 41.4795 110.633 40.8328C110.552 40.5393 110.495 40.3445 110.46 40.2508C109.63 41.0741 108.742 41.6909 107.796 42.1021C106.85 42.5133 105.842 42.7189 104.768 42.7197C102.877 42.7197 101.383 42.1966 100.288 41.1495C99.2033 40.1041 98.6616 38.7818 98.6616 37.1826C98.6616 36.1248 98.9097 35.1847 99.4058 34.3614C99.9012 33.5274 100.593 32.8932 101.482 32.458C102.381 32.0111 103.673 31.624 105.357 31.294C107.629 30.8596 109.204 30.4534 110.08 30.0779V29.5846C110.08 28.632 109.85 27.9564 109.388 27.5568C108.926 27.1456 108.055 26.9408 106.776 26.94C105.911 26.94 105.235 27.1166 104.751 27.4689C104.266 27.8096 103.874 28.4157 103.574 29.2845ZM96.7827 42.2969H91.9211V32.7407C91.9211 30.7187 91.817 29.4138 91.6096 28.826C91.4014 28.2266 91.0614 27.7632 90.5888 27.4333C90.1276 27.1041 89.568 26.94 88.91 26.9392C88.0682 26.9392 87.3125 27.1746 86.6439 27.6447C85.9753 28.1147 85.5133 28.7373 85.2604 29.5133C85.018 30.2901 84.8976 31.7235 84.8976 33.8159V42.2969H80.0369V23.5725H84.5519V26.3232C86.1551 24.2075 88.1731 23.1497 90.6067 23.1497C91.6787 23.1497 92.6589 23.3495 93.5471 23.7491C94.4353 24.1371 95.1039 24.637 95.5545 25.2479C96.0149 25.8598 96.3321 26.5528 96.5062 27.3288C96.69 28.1048 96.7819 29.2148 96.7827 30.6615V42.2969ZM71.9991 42.2969V23.5725H76.8606V42.2969H71.9991ZM71.9991 21.034V16.4503H76.8606V21.034H71.9991ZM52.3535 36.9546L57.2322 36.1969C57.4404 37.1611 57.8601 37.8956 58.4953 38.4005C59.1298 38.8946 60.0172 39.1416 61.1592 39.1416C62.4166 39.1416 63.3618 38.907 63.9962 38.4361C64.4224 38.107 64.6355 37.6659 64.6364 37.1138C64.6364 36.7383 64.52 36.4265 64.2899 36.1795C64.0483 35.9449 63.5049 35.7277 62.6639 35.527C58.7426 34.6458 56.2569 33.8408 55.2077 33.1113C53.755 32.1007 53.0278 30.6963 53.0278 28.8973C53.0278 27.2757 53.6557 25.912 54.9132 24.8069C56.1699 23.7018 58.1187 23.1497 60.7598 23.1497C63.2739 23.1497 65.1423 23.5675 66.3656 24.4015C67.5881 25.2363 68.4291 26.4708 68.8911 28.1039L64.3061 28.9678C64.1101 28.2399 63.7351 27.682 63.1812 27.2932C62.6395 26.9052 61.8611 26.7112 60.846 26.7112C59.5666 26.7112 58.6491 26.8936 58.0952 27.2575C57.7259 27.5162 57.5412 27.8519 57.5412 28.2623C57.5412 28.6155 57.7023 28.9147 58.026 29.1618C58.4636 29.4909 59.9749 29.9552 62.5582 30.5545C65.1528 31.1539 66.9642 31.8884 67.9907 32.7581C69.0058 33.6394 69.5126 34.868 69.5134 36.4431C69.5134 38.1592 68.8098 39.6349 67.4018 40.8685C65.9955 42.1029 63.9133 42.7197 61.1567 42.7197C58.654 42.7197 56.6701 42.2024 55.206 41.1677C53.7558 40.1339 52.8041 38.7296 52.3535 36.9546Z" fill="#414042"/>
</svg>
